in-order/toplevel/sim/presyn/top_level_with_macros.vcd
$date
	Mon Jun  5 12:31:56 2023
$end

$version
	Synopsys VCS version T-2022.06_Full64
$end

$timescale
	10ps
$end

$comment Csum: 1 448b9e11b9ccd42c $end


$scope module top_level_with_macros_tb $end
$var reg 1 ! clk $end
$var reg 1 " reset $end

$scope module dut $end
$var wire 1 # clk $end
$var wire 1 $ reset $end
$var wire 32 % dmem_rdata [31:0] $end
$var wire 1 & dmem_w_en $end
$var wire 32 ' dmem_wdata [31:0] $end
$var wire 6 ( dmem_addr [5:0] $end
$var wire 32 ) instruction_if [31:0] $end
$var wire 32 * pc_if [31:0] $end

$scope module cpu0 $end
$var wire 1 # clk $end
$var wire 1 $ reset $end
$var wire 32 % dmem_rdata [31:0] $end
$var wire 1 & dmem_w_en $end
$var wire 32 ' dmem_wdata [31:0] $end
$var wire 6 ( dmem_addr [5:0] $end
$var wire 32 ) instruction_if [31:0] $end
$var wire 32 * pc_if [31:0] $end
$var wire 1 + hazard_flag $end
$var wire 1 , StallFetch $end
$var wire 1 - StallDecode $end
$var wire 1 . muldiv_hazard $end
$var wire 32 / pc_id [31:0] $end
$var wire 32 0 instruction_id [31:0] $end
$var wire 5 1 rs1_addr [4:0] $end
$var wire 5 2 rs2_addr [4:0] $end
$var wire 32 3 rs1_data [31:0] $end
$var wire 32 4 rs2_data [31:0] $end
$var wire 1 5 StallDecode_i $end
$var wire 32 6 pc_ex [31:0] $end
$var wire 5 7 rd_addr_ex [4:0] $end
$var wire 32 8 rs1_data_ex [31:0] $end
$var wire 32 9 rs2_data_ex [31:0] $end
$var wire 1 : rf_w_en_ex $end
$var wire 2 ; opsel1 [1:0] $end
$var wire 2 < opsel2 [1:0] $end
$var wire 2 = wbsel_ex [1:0] $end
$var wire 4 > alu_func [3:0] $end
$var wire 1 ? mem_w_en_ex $end
$var wire 1 @ load_flag_ex $end
$var wire 32 A pc_mem [31:0] $end
$var wire 5 B rd_addr_mem [4:0] $end
$var wire 1 C rf_w_en_mem $end
$var wire 32 D alu_out_mem [31:0] $end
$var wire 32 E imm_mem [31:0] $end
$var wire 2 F wbsel_mem [1:0] $end
$var wire 1 G mem_w_en_mem $end
$var wire 32 H rs2_data_mem [31:0] $end
$var wire 32 I pc_wb [31:0] $end
$var wire 5 J rd_addr_wb [4:0] $end
$var wire 1 K rf_w_en_wb $end
$var wire 32 L alu_out_wb [31:0] $end
$var wire 32 M rf_wdata_wb [31:0] $end
$var wire 32 N load_data_wb [31:0] $end
$var wire 32 O imm_wb [31:0] $end
$var wire 2 P wbsel_wb [1:0] $end
$var wire 2 Q pcsel [1:0] $end
$var wire 32 R br_tar [31:0] $end

$scope module hazard_detect0 $end
$var reg 5 S SourceReg1Dec [4:0] $end
$var reg 5 T SourceReg2Dec [4:0] $end
$var reg 5 U DestRegExec [4:0] $end
$var reg 5 V DestRegMem [4:0] $end
$var reg 5 W DestRegWriteBack [4:0] $end
$var reg 1 X RegisterWriteMem $end
$var reg 1 Y RegisterWriteWriteBack $end
$var reg 1 Z ResultSourceExec0 $end
$var reg 1 [ ProgramCounterSourceExec $end
$var reg 1 \ StallDecode_o $end
$var reg 1 ] StallFetch_o $end
$var reg 1 ^ muldiv_hazard_i $end
$var reg 1 _ LoadWordStall $end
$var reg 1 ` RAW_hazard $end
$upscope $end


$scope module fetch0 $end
$var reg 1 a clk $end
$var reg 1 b reset $end
$var reg 2 c pcsel [1:0] $end
$var reg 32 d br_dest [31:0] $end
$var reg 32 e instr_if [31:0] $end
$var reg 32 f pc_if [31:0] $end
$var reg 32 g pc_o [31:0] $end
$var reg 32 h instr_o [31:0] $end
$var reg 1 i hazard_flag_i $end
$var wire 1 , StallFetch_i $end
$var reg 32 j pc [31:0] $end
$upscope $end


$scope module decode0 $end
$var wire 1 # clk $end
$var wire 1 $ reset $end
$var wire 32 / pc_i [31:0] $end
$var wire 32 0 inst [31:0] $end
$var wire 32 3 rs1_value_i [31:0] $end
$var wire 32 4 rs2_value_i [31:0] $end
$var wire 1 5 StallDecode_i $end
$var wire 1 k FlushDecode $end
$var reg 32 l pc_o [31:0] $end
$var reg 4 m alu_func [3:0] $end
$var reg 2 n opsel1 [1:0] $end
$var reg 2 o opsel2 [1:0] $end
$var reg 2 p wbsel [1:0] $end
$var reg 5 q rs1_addr [4:0] $end
$var reg 5 r rs2_addr [4:0] $end
$var reg 5 s rd_addr [4:0] $end
$var reg 32 t rs1_value_o [31:0] $end
$var reg 32 u rs2_value_o [31:0] $end
$var reg 1 v rf_w_en $end
$var reg 1 w mem_w_en $end
$var reg 32 x imm [31:0] $end
$var reg 1 y load_flag_o $end
$var reg 2 z pcsel [1:0] $end
$var reg 32 { branch_tar [31:0] $end
$var wire 1 . muldiv_hazard $end
$var wire 5 | rs1 [4:0] $end
$var wire 5 } rs2 [4:0] $end
$var wire 5 ~ rd [4:0] $end
$var wire 7 "! opcode [6:0] $end
$var wire 3 "" funct3 [2:0] $end
$var wire 7 "# funct7 [6:0] $end
$var wire 12 "$ imm_i [11:0] $end
$var wire 20 "% imm_u [19:0] $end
$var wire 12 "& imm_s [11:0] $end
$var wire 32 "' br_addr [31:0] $end
$var wire 32 "( jal_addr [31:0] $end
$var wire 32 ") jalr_addr [31:0] $end
$var wire 1 "* branch_cond_eq $end
$var wire 1 "+ branch_cond_ne $end
$var wire 1 ", branch_cond_lt $end
$var wire 1 "- branch_cond_ge $end
$var wire 1 ". branch_cond_ltu $end
$var wire 1 "/ branch_cond_geu $end
$var reg 4 "0 alu_func_id [3:0] $end
$var reg 2 "1 opsel1_id [1:0] $end
$var reg 2 "2 opsel2_id [1:0] $end
$var reg 2 "3 wbsel_id [1:0] $end
$var reg 5 "4 rd_addr_id [4:0] $end
$var reg 1 "5 rf_w_en_id $end
$var reg 1 "6 mem_w_en_id $end
$var reg 32 "7 imm_id [31:0] $end
$var wire 1 "8 load_flag $end
$upscope $end


$scope module regfile0 $end
$var wire 1 # clk $end
$var wire 1 $ reset $end
$var wire 1 "9 w_en $end
$var wire 5 1 ra_addr [4:0] $end
$var wire 5 2 rb_addr [4:0] $end
$var wire 5 J rd_addr [4:0] $end
$var wire 32 M w_data [31:0] $end
$var wire 32 3 ra_value [31:0] $end
$var wire 32 4 rb_value [31:0] $end
$var integer 32 ": i $end
$upscope $end


$scope module exec0 $end
$var wire 1 # clk $end
$var wire 1 $ reset $end
$var wire 2 ; opsel1 [1:0] $end
$var wire 2 < opsel2 [1:0] $end
$var wire 4 > alu_func [3:0] $end
$var wire 32 8 rs1_data_i [31:0] $end
$var wire 32 9 rs2_data_i [31:0] $end
$var wire 32 E imm [31:0] $end
$var wire 32 6 pc_i [31:0] $end
$var wire 5 7 rd_addr_i [4:0] $end
$var wire 1 : rf_w_en_i $end
$var wire 2 = wbsel_i [1:0] $end
$var wire 1 ? mem_w_en_i $end
$var wire 7 "; funct7 [6:0] $end
$var wire 3 "< funct3 [2:0] $end
$var reg 32 "= pc_o [31:0] $end
$var reg 32 "> alu_out [31:0] $end
$var reg 5 "? rd_addr_o [4:0] $end
$var reg 1 "@ rf_w_en_o $end
$var reg 2 "A wbsel_o [1:0] $end
$var reg 1 "B mem_w_en_o $end
$var reg 32 "C rs2_data_o [31:0] $end
$var reg 32 "D alu_op1 [31:0] $end
$var reg 32 "E alu_op2 [31:0] $end
$var wire 32 "F alu_out_temp [31:0] $end

$scope module alu0 $end
$var wire 7 "; funct7 [6:0] $end
$var wire 3 "< funct3 [2:0] $end
$var wire 32 "G alu_op1 [31:0] $end
$var wire 32 "H alu_op2 [31:0] $end
$var wire 4 > alu_func [3:0] $end
$var reg 32 "I alu_out [31:0] $end
$var reg 64 "J alu_out_temp [63:0] $end
$upscope $end

$upscope $end


$scope module memaccess0 $end
$var wire 1 # clk $end
$var wire 1 $ reset $end
$var wire 32 A pc_i [31:0] $end
$var wire 32 D alu_result_i [31:0] $end
$var wire 32 % mem_r_i [31:0] $end
$var wire 5 B rd_addr_i [4:0] $end
$var wire 1 C rf_w_en_i $end
$var wire 32 E imm_i [31:0] $end
$var wire 2 F wbsel_i [1:0] $end
$var reg 32 "K pc_o [31:0] $end
$var reg 32 "L alu_result_o [31:0] $end
$var reg 32 "M load_data [31:0] $end
$var reg 5 "N rd_addr_o [4:0] $end
$var reg 1 "O rf_w_en_o $end
$var reg 32 "P imm_o [31:0] $end
$var reg 2 "Q wbsel_o [1:0] $end
$upscope $end


$scope module wb0 $end
$var wire 2 P wbsel [1:0] $end
$var wire 32 L alu_result [31:0] $end
$var wire 32 N dmem_result [31:0] $end
$var wire 32 O imm [31:0] $end
$var wire 32 I pc_i [31:0] $end
$var reg 32 "R rf_wdata [31:0] $end
$upscope $end

$upscope $end


$scope module dcache0 $end
$var wire 1 # clk0 $end
$var wire 1 "S csb0 $end
$var wire 8 "T addr0 [7:0] $end
$var wire 4 "U wmask0 [3:0] $end
$var wire 32 ' din0 [31:0] $end
$var wire 1 # clk1 $end
$var wire 1 "V csb1 $end
$var wire 8 "W addr1 [7:0] $end
$var reg 32 "X dout1 [31:0] $end
$var reg 1 "Y csb0_reg $end
$var reg 4 "Z wmask0_reg [3:0] $end
$var reg 8 "[ addr0_reg [7:0] $end
$var reg 32 "\ din0_reg [31:0] $end
$var reg 1 "] csb1_reg $end
$var reg 8 "^ addr1_reg [7:0] $end

$scope begin MEM_WRITE0 $end
$upscope $end


$scope begin MEM_READ1 $end
$upscope $end

$upscope $end


$scope module instruction_memory $end
$var wire 1 # clk0 $end
$var wire 1 "_ csb0 $end
$var wire 1 "` web0 $end
$var wire 8 "a addr0 [7:0] $end
$var wire 32 "b din0 [31:0] $end
$var reg 32 "c dout0 [31:0] $end
$var reg 1 "d csb0_reg $end
$var reg 1 "e web0_reg $end
$var reg 8 "f addr0_reg [7:0] $end
$var reg 32 "g din0_reg [31:0] $end

$scope begin unnamed$$_0 $end
$upscope $end


$scope begin MEM_WRITE0 $end
$upscope $end


$scope begin MEM_READ0 $end
$upscope $end

$upscope $end

$upscope $end

$upscope $end

$enddefinitions $end

#0
$dumpvars
zk
z5
bxxxxxxxxxxxxxxxxxxxxxxxxxxxxxxxx D
x"*
x"-
x"/
x",
x".
x"+
0!
bxxxxxxxxxxxxxxxxxxxxxxxxxxxxxxxx %
x&
1b
z+
xi
bxxxxxxxxxxxxxxxxxxxxxxxxxxxxxxxx )
x"8
xy
xw
0"6
xG
bxxxxxxxxxxxxxxxxxxxxxxxxxxxxxxxx A
bxxxxx B
1"
xv
0"5
x"O
bxxxxxxxxxxxxxxxxxxxxxxxxxxxxxxxx H
bxx F
b0000 "0
bxxxxxxxxxxxxxxxxxxxxxxxxxxxxxxxx "L
bxxxxxxxxxxxxxxxxxxxxxxxxxxxxxxxx "'
b00000000000000000000000000000000 d
b00000000000000000000000000000000 R
b00000000000000000000000000000000 {
bxxxx m
bxx n
bxx o
bxxxxxxxxxxxxxxxxxxxxxxxxxxxxxxxx l
b00 z
b00000 q
b00000 r
bxxxxxxxxxxxxxxxxxxxxxxxxxxxxxxxx f
b00 c
bxxxxxxxxxxxxxxxxxxxxxxxxxxxxxxxx x
bxxxxxxxxxxxx "$
b00000000000000000000000000000000 "7
bxxxxxxxxxxxxxxxxxxxxxxxxxxxxxxxx "P
bxxxxxxxxxxxx "&
bxxxxxxxxxxxxxxxxxxxx "%
bxxxxxxxxxxxxxxxxxxxxxxxxxxxxxxxx e
bxxxxxxxxxxxxxxxxxxxxxxxxxxxxxxxx h
bxxxxxxxxxxxxxxxxxxxxxxxxxxxxxxxx "(
bxxxxxxxxxxxxxxxxxxxxxxxxxxxxxxxx ")
bxxxxxxxxxxxxxxxxxxxxxxxxxxxxxxxx "M
bxxxxxxxxxxxxxxxxxxxxxxxxxxxxxxxx "K
b00 "1
b00 "2
bxxxxxxxxxxxxxxxxxxxxxxxxxxxxxxxx j
bxxxxxxxxxxxxxxxxxxxxxxxxxxxxxxxx /
bxxxxxxxxxxxxxxxxxxxxxxxxxxxxxxxx g
bxxxxx s
b00000 "4
bxxxxx "N
bxxxxxxxxxxxxxxxxxxxxxxxxxxxxxxxx t
bxxxxxxxxxxxxxxxxxxxxxxxxxxxxxxxx u
bxxxxx |
bxxxxx }
bxxxxx ~
bxxxxxxx "!
bxxx ""
bxxxxxxx "#
bxx p
b00 "3
bxx "Q
x_
0`
bxxxxx U
bxxxxx V
bxxxxx W
b00000 S
b00000 T
bxxxxxxxxxxxxxxxxxxxxxxxxxxxxxxxx ":
x"B
x"@
bxxxxxxxxxxxxxxxxxxxxxxxxxxxxxxxx "G
bxxxxxxxxxxxxxxxxxxxxxxxxxxxxxxxx "H
bxxxxxxxxxxxxxxxxxxxxxxxxxxxxxxxx "I
bxxxxxxxxxxxxxxxxxxxxxxxxxxxxxxxxxxxxxxxxxxxxxxxxxxxxxxxxxxxxxxxx "J
bxxxxxxxxxxxxxxxxxxxxxxxxxxxxxxxx "D
bxxxxxxxxxxxxxxxxxxxxxxxxxxxxxxxx "E
bxxxxxxxxxxxxxxxxxxxxxxxxxxxxxxxx ">
bxxxxxxxxxxxxxxxxxxxxxxxxxxxxxxxx "F
bxxxxxxxxxxxxxxxxxxxxxxxxxxxxxxxx "=
bxxxxx "?
bxxxxxxxxxxxxxxxxxxxxxxxxxxxxxxxx "C
bxx "A
bxxxxxxxxxxxxxxxxxxxxxxxxxxxxxxxx "R
x"Y
x"]
bxxxxxxxx "[
bxxxxxxxx "^
bxxxxxxxxxxxxxxxxxxxxxxxxxxxxxxxx "\
bxxxxxxxxxxxxxxxxxxxxxxxxxxxxxxxx "X
bxxxx "Z
x"d
x"e
bxxxxxxxx "f
bxxxxxxxxxxxxxxxxxxxxxxxxxxxxxxxx "g
bxxxxxxxxxxxxxxxxxxxxxxxxxxxxxxxx "c
bxxxxxxx ";
b00xxxxxx "T
b00xxxxxx "W
bxxxxxxxx "a
bxxx "<
x.
x\
x]
bxxxxxx (
bxxxxxxxxxxxxxxxxxxxxxxxxxxxxxxxx *
bxxxxxxxxxxxxxxxxxxxxxxxxxxxxxxxx 0
b00 Q
b00000 1
b00000 2
bxxxxx 7
bxxxxx J
xX
xY
xZ
0[
x^
0#
1$
bxxxxxxxxxxxxxxxxxxxxxxxxxxxxxxxx M
bxxxxxxxxxxxxxxxxxxxxxxxxxxxxxxxx 3
bxxxxxxxxxxxxxxxxxxxxxxxxxxxxxxxx 4
bxx ;
bxx <
bxxxx >
bxxxxxxxxxxxxxxxxxxxxxxxxxxxxxxxx 8
bxxxxxxxxxxxxxxxxxxxxxxxxxxxxxxxx 9
x:
bxx =
x?
bxxxxxxxxxxxxxxxxxxxxxxxxxxxxxxxx E
bxxxxxxxxxxxxxxxxxxxxxxxxxxxxxxxx 6
xC
bxx P
bxxxxxxxxxxxxxxxxxxxxxxxxxxxxxxxx L
bxxxxxxxxxxxxxxxxxxxxxxxxxxxxxxxx N
bxxxxxxxxxxxxxxxxxxxxxxxxxxxxxxxx O
bxxxxxxxxxxxxxxxxxxxxxxxxxxxxxxxx I
bxxxxxxxxxxxxxxxxxxxxxxxxxxxxxxxx '
x,
x-
x@
xK
0a
x"9
b00000000000000000000000000000000 "b
0"S
0"_
1"`
bzzzz "U
z"V
$end
#500
1!
1#
1a
b00000000000000000000000000100000 ":
0"Y
bzzzz "Z
b00xxxxxx "[
z"]
b00xxxxxx "^
0"d
1"e
b00000000000000000000000000000000 "g
b00000000000000000000000000000000 l
b00000000000000000000000000000000 6
b0000 m
b0000 >
b00 n
b00 ;
b00 o
b00 <
b00 p
b00 =
b00000 s
b00000 7
b00000 U
0v
0:
0w
0?
b00000000000000000000000000000000 x
b00000000000000000000000000000000 E
b00000000000000000000000000000000 t
b00000000000000000000000000000000 8
b00000000000000000000000000000000 u
b00000000000000000000000000000000 9
0y
0@
0Z
b00000000000000000000000000000000 "K
b00000000000000000000000000000000 I
b00000000000000000000000000000000 "L
b00000000000000000000000000000000 L
b00000 "N
b00000 J
b00000 W
0"O
0K
0Y
0"9
b00000000000000000000000000000000 "M
b00000000000000000000000000000000 N
b00000000000000000000000000000000 "P
b00000000000000000000000000000000 O
b00 "Q
b00 P
b00000000000000000000000000000000 4
b00000000000000000000000000000000 3
1"-
0",
1"/
0".
0"+
1"*
b00000000000000000000000000000000 "=
b00000000000000000000000000000000 A
b00000000000000000000000000000000 ">
b00000000000000000000000000000000 D
b000000 (
b00000 "?
b00000 B
b00000 V
0"@
0C
0X
b00 "A
b00 F
0"B
0G
0&
b00000000000000000000000000000000 "C
b00000000000000000000000000000000 H
b00000000000000000000000000000000 '
b00000000000000000000000000000000 j
b00000000000000000000000000000000 f
b00000000000000000000000000000000 *
b00000000 "a
b00000000000000000000000000000000 g
b00000000000000000000000000000000 /
b00000000000000000000000000000000 h
b00000000000000000000000000000000 0
b000 "<
bxxxxxxx00000 "&
b0000000 ";
b000000000000 "&
b000000000000 "$
b00000000000000000000 "%
b00000 |
b00000 }
b00000 ~
b0000000 "!
b000 ""
b0000000 "#
0"8
b00000000 "T
b00000000 "W
b00000000000000000000000000000000 "D
b00000000000000000000000000000000 "G
b0000000000000000000000000000000000000000000000000000000000000000 "J
0.
0^
b00000000000000000000000000000000 "E
b00000000000000000000000000000000 "H
0_
0\
0-
0]
0,
b00000000000000000000000000000000 "R
b00000000000000000000000000000000 M
b00000000000000000000000000000000 "'
b00000000000000000000000000000000 "(
b00000000000000000000000000000000 ")
b00000000000000000000000000000000 "I
b00000000000000000000000000000000 "F
#1000
0!
0#
0a
#1500
1!
1#
1a
b00000000 "[
b00000000000000000000000000000000 "\
b00000000 "^
b00000000 "f
#2000
0"
0$
0b
0!
0#
0a
#2300
b00000000001100010000000010110011 "c
b00000000001100010000000010110011 )
b00000000001100010000000010110011 e
#2500
1!
1#
1a
bxxxxxxxxxxxxxxxxxxxxxxxxxxxxxxxx "M
bxxxxxxxxxxxxxxxxxxxxxxxxxxxxxxxx N
b00000000000000000000000000000100 j
b00000000000000000000000000000100 f
b00000000000000000000000000000100 *
b00000100 "a
b00000000001100010000000010110011 h
b00000000001100010000000010110011 0
b000000000001 "&
b000000000011 "$
b00000000001100010000 "%
b00010 |
b00011 }
b00001 ~
b0110011 "!
b00000000000000000000100000000000 "'
b00000000000000010000100000000010 "(
1"5
b00001 "4
b00011 r
b00011 2
b00011 T
b00010 q
b00010 1
b00010 S
b01 "2
b01 "1
b0001 "0
b00000000000000000000000000000101 ")
#2600
bxxxxxxxxxxxxxxxxxxxxxxxxxxxxxxxx "c
bxxxxxxxxxxxxxxxxxxxxxxxxxxxxxxxx )
bxxxxxxxxxxxxxxxxxxxxxxxxxxxxxxxx e
#3000
0!
0#
0a
#3300
b00000000001100010000000010110011 "c
b00000000001100010000000010110011 )
b00000000001100010000000010110011 e
#3500
1!
1#
1a
b00000100 "f
b0001 m
b0001 >
b01 n
b01 ;
b01 o
b01 <
b00001 s
b00001 7
b00001 U
1v
1:
b00000000000000000000000000001000 j
b00000000000000000000000000001000 f
b00000000000000000000000000001000 *
b00001000 "a
b00000000000000000000000000000100 g
b00000000000000000000000000000100 /
b00000000000000010000100000000110 "(
b00000000000000000000100000000100 "'
#3600
bxxxxxxxxxxxxxxxxxxxxxxxxxxxxxxxx "c
bxxxxxxxxxxxxxxxxxxxxxxxxxxxxxxxx )
bxxxxxxxxxxxxxxxxxxxxxxxxxxxxxxxx e
#4000
0!
0#
0a
#4300
b00000000001100010000001100110011 "c
b00000000001100010000001100110011 )
b00000000001100010000001100110011 e
#4500
1!
1#
1a
b00001000 "f
b00000000000000000000000000000100 l
b00000000000000000000000000000100 6
b00001 "?
b00001 B
b00001 V
1"@
1C
1X
b00000000000000000000000000001100 j
b00000000000000000000000000001100 f
b00000000000000000000000000001100 *
b00001100 "a
b00000000000000000000000000001000 g
b00000000000000000000000000001000 /
b00000000001100010000001100110011 h
b00000000001100010000001100110011 0
b000000000110 "&
b00110 ~
b00000000000000010000100000001010 "(
b00000000000000000000000000001110 "'
b00110 "4
#4600
bxxxxxxxxxxxxxxxxxxxxxxxxxxxxxxxx "c
bxxxxxxxxxxxxxxxxxxxxxxxxxxxxxxxx )
bxxxxxxxxxxxxxxxxxxxxxxxxxxxxxxxx e
#5000
0!
0#
0a
#5300
b00000000000000000000000000001000 "c
b00000000000000000000000000001000 )
b00000000000000000000000000001000 e
#5500
1!
1#
1a
b00001100 "f
b00000000000000000000000000001000 l
b00000000000000000000000000001000 6
b00110 s
b00110 7
b00110 U
b00001 "N
b00001 J
b00001 W
1"O
1K
1Y
1"9
b00000000000000000000000000000100 "=
b00000000000000000000000000000100 A
b00000000000000000000000000010000 j
b00000000000000000000000000010000 f
b00000000000000000000000000010000 *
b00010000 "a
b00000000000000000000000000001100 g
b00000000000000000000000000001100 /
b00000000000000000000000000001000 h
b00000000000000000000000000001000 0
b000000000000 "&
b000000000000 "$
b00000000000000000000 "%
b00000 |
b00000 }
b00000 ~
b0001000 "!
b00000000000000000000000000001100 "(
b00000000000000000000000000001100 "'
0"5
b00000 "4
b00000 r
b00000 2
b00000 T
b00000 q
b00000 1
b00000 S
b00 "2
b00 "1
b0000 "0
b00000000000000000000000000000000 ")
#5600
bxxxxxxxxxxxxxxxxxxxxxxxxxxxxxxxx "c
bxxxxxxxxxxxxxxxxxxxxxxxxxxxxxxxx )
bxxxxxxxxxxxxxxxxxxxxxxxxxxxxxxxx e
#6000
0!
0#
0a
#6300
b00000000000000000000000000001100 "c
b00000000000000000000000000001100 )
b00000000000000000000000000001100 e
#6500
1!
1#
1a
b00010000 "f
b00000000000000000000000000001100 l
b00000000000000000000000000001100 6
b0000 m
b0000 >
b00 n
b00 ;
b00 o
b00 <
b00000 s
b00000 7
b00000 U
0v
0:
b00000000000000000000000000000100 "K
b00000000000000000000000000000100 I
b00000000000000000000000000001000 "=
b00000000000000000000000000001000 A
b00110 "?
b00110 B
b00110 V
b00000000000000000000000000010100 j
b00000000000000000000000000010100 f
b00000000000000000000000000010100 *
b00010100 "a
b00000000000000000000000000010000 g
b00000000000000000000000000010000 /
b00000000000000000000000000001100 h
b00000000000000000000000000001100 0
b0001100 "!
b00000000000000000000000000010000 "(
b00000000000000000000000000010000 "'
#6600
bxxxxxxxxxxxxxxxxxxxxxxxxxxxxxxxx "c
bxxxxxxxxxxxxxxxxxxxxxxxxxxxxxxxx )
bxxxxxxxxxxxxxxxxxxxxxxxxxxxxxxxx e
#7000
0!
0#
0a
#7300
b00000000000000000000000000010000 "c
b00000000000000000000000000010000 )
b00000000000000000000000000010000 e
#7500
1!
1#
1a
b00010100 "f
b00000000000000000000000000010000 l
b00000000000000000000000000010000 6
b00000000000000000000000000001000 "K
b00000000000000000000000000001000 I
b00110 "N
b00110 J
b00110 W
b00000000000000000000000000001100 "=
b00000000000000000000000000001100 A
b00000 "?
b00000 B
b00000 V
0"@
0C
0X
b00000000000000000000000000011000 j
b00000000000000000000000000011000 f
b00000000000000000000000000011000 *
b00011000 "a
b00000000000000000000000000010100 g
b00000000000000000000000000010100 /
b00000000000000000000000000010000 h
b00000000000000000000000000010000 0
b0010000 "!
b00000000000000000000000000010100 "(
b00000000000000000000000000010100 "'
#7600
bxxxxxxxxxxxxxxxxxxxxxxxxxxxxxxxx "c
bxxxxxxxxxxxxxxxxxxxxxxxxxxxxxxxx )
bxxxxxxxxxxxxxxxxxxxxxxxxxxxxxxxx e
#8000
0!
0#
0a
#8300
b00000000000000000000000000010100 "c
b00000000000000000000000000010100 )
b00000000000000000000000000010100 e
#8500
1!
1#
1a
b00011000 "f
b00000000000000000000000000010100 l
b00000000000000000000000000010100 6
b00000000000000000000000000001100 "K
b00000000000000000000000000001100 I
b00000 "N
b00000 J
b00000 W
0"O
0K
0Y
0"9
b00000000000000000000000000010000 "=
b00000000000000000000000000010000 A
b00000000000000000000000000011100 j
b00000000000000000000000000011100 f
b00000000000000000000000000011100 *
b00011100 "a
b00000000000000000000000000011000 g
b00000000000000000000000000011000 /
b00000000000000000000000000010100 h
b00000000000000000000000000010100 0
b0010100 "!
b00000000000000000000000000011000 "(
b00000000000000000000000000011000 "'
#8600
bxxxxxxxxxxxxxxxxxxxxxxxxxxxxxxxx "c
bxxxxxxxxxxxxxxxxxxxxxxxxxxxxxxxx )
bxxxxxxxxxxxxxxxxxxxxxxxxxxxxxxxx e
#9000
0!
0#
0a
#9300
b00000000000000000000000000011000 "c
b00000000000000000000000000011000 )
b00000000000000000000000000011000 e
#9500
1!
1#
1a
b00011100 "f
b00000000000000000000000000011000 l
b00000000000000000000000000011000 6
b00000000000000000000000000010000 "K
b00000000000000000000000000010000 I
b00000000000000000000000000010100 "=
b00000000000000000000000000010100 A
b00000000000000000000000000100000 j
b00000000000000000000000000100000 f
b00000000000000000000000000100000 *
b00100000 "a
b00000000000000000000000000011100 g
b00000000000000000000000000011100 /
b00000000000000000000000000011000 h
b00000000000000000000000000011000 0
b0011000 "!
b00000000000000000000000000011100 "(
b00000000000000000000000000011100 "'
#9600
bxxxxxxxxxxxxxxxxxxxxxxxxxxxxxxxx "c
bxxxxxxxxxxxxxxxxxxxxxxxxxxxxxxxx )
bxxxxxxxxxxxxxxxxxxxxxxxxxxxxxxxx e
#10000
0!
0#
0a
#10300
b00000000000000000000000000011100 "c
b00000000000000000000000000011100 )
b00000000000000000000000000011100 e
#10500
1!
1#
1a
b00100000 "f
b00000000000000000000000000011100 l
b00000000000000000000000000011100 6
b00000000000000000000000000010100 "K
b00000000000000000000000000010100 I
b00000000000000000000000000011000 "=
b00000000000000000000000000011000 A
b00000000000000000000000000100100 j
b00000000000000000000000000100100 f
b00000000000000000000000000100100 *
b00100100 "a
b00000000000000000000000000100000 g
b00000000000000000000000000100000 /
b00000000000000000000000000011100 h
b00000000000000000000000000011100 0
b0011100 "!
b00000000000000000000000000100000 "(
b00000000000000000000000000100000 "'
#10600
bxxxxxxxxxxxxxxxxxxxxxxxxxxxxxxxx "c
bxxxxxxxxxxxxxxxxxxxxxxxxxxxxxxxx )
bxxxxxxxxxxxxxxxxxxxxxxxxxxxxxxxx e
#11000
0!
0#
0a
#11300
b00000000000000000000000000100000 "c
b00000000000000000000000000100000 )
b00000000000000000000000000100000 e
#11500
1!
1#
1a
b00100100 "f
b00000000000000000000000000100000 l
b00000000000000000000000000100000 6
b00000000000000000000000000011000 "K
b00000000000000000000000000011000 I
b00000000000000000000000000011100 "=
b00000000000000000000000000011100 A
b00000000000000000000000000101000 j
b00000000000000000000000000101000 f
b00000000000000000000000000101000 *
b00101000 "a
b00000000000000000000000000100100 g
b00000000000000000000000000100100 /
b00000000000000000000000000100000 h
b00000000000000000000000000100000 0
b0100000 "!
b00000000000000000000000000100100 "(
b00000000000000000000000000100100 "'
#11600
bxxxxxxxxxxxxxxxxxxxxxxxxxxxxxxxx "c
bxxxxxxxxxxxxxxxxxxxxxxxxxxxxxxxx )
bxxxxxxxxxxxxxxxxxxxxxxxxxxxxxxxx e
#12000
0!
0#
0a
#12300
b00000000000000000000000000100100 "c
b00000000000000000000000000100100 )
b00000000000000000000000000100100 e
#12500
1!
1#
1a
b00101000 "f
b00000000000000000000000000100100 l
b00000000000000000000000000100100 6
b00000000000000000000000000011100 "K
b00000000000000000000000000011100 I
b00000000000000000000000000100000 "=
b00000000000000000000000000100000 A
b00000000000000000000000000101100 j
b00000000000000000000000000101100 f
b00000000000000000000000000101100 *
b00101100 "a
b00000000000000000000000000101000 g
b00000000000000000000000000101000 /
b00000000000000000000000000100100 h
b00000000000000000000000000100100 0
b0100100 "!
b00000000000000000000000000101000 "(
b00000000000000000000000000101000 "'
#12600
bxxxxxxxxxxxxxxxxxxxxxxxxxxxxxxxx "c
bxxxxxxxxxxxxxxxxxxxxxxxxxxxxxxxx )
bxxxxxxxxxxxxxxxxxxxxxxxxxxxxxxxx e
#13000
0!
0#
0a
#13300
b00000000000000000000000000101000 "c
b00000000000000000000000000101000 )
b00000000000000000000000000101000 e
#13500
1!
1#
1a
b00101100 "f
b00000000000000000000000000101000 l
b00000000000000000000000000101000 6
b00000000000000000000000000100000 "K
b00000000000000000000000000100000 I
b00000000000000000000000000100100 "=
b00000000000000000000000000100100 A
b00000000000000000000000000110000 j
b00000000000000000000000000110000 f
b00000000000000000000000000110000 *
b00110000 "a
b00000000000000000000000000101100 g
b00000000000000000000000000101100 /
b00000000000000000000000000101000 h
b00000000000000000000000000101000 0
b0101000 "!
b00000000000000000000000000101100 "(
b00000000000000000000000000101100 "'
#13600
bxxxxxxxxxxxxxxxxxxxxxxxxxxxxxxxx "c
bxxxxxxxxxxxxxxxxxxxxxxxxxxxxxxxx )
bxxxxxxxxxxxxxxxxxxxxxxxxxxxxxxxx e
#14000
0!
0#
0a
#14300
b00000000000000000000000000101100 "c
b00000000000000000000000000101100 )
b00000000000000000000000000101100 e
#14500
1!
1#
1a
b00110000 "f
b00000000000000000000000000101100 l
b00000000000000000000000000101100 6
b00000000000000000000000000100100 "K
b00000000000000000000000000100100 I
b00000000000000000000000000101000 "=
b00000000000000000000000000101000 A
b00000000000000000000000000110100 j
b00000000000000000000000000110100 f
b00000000000000000000000000110100 *
b00110100 "a
b00000000000000000000000000110000 g
b00000000000000000000000000110000 /
b00000000000000000000000000101100 h
b00000000000000000000000000101100 0
b0101100 "!
b00000000000000000000000000110000 "(
b00000000000000000000000000110000 "'
#14600
bxxxxxxxxxxxxxxxxxxxxxxxxxxxxxxxx "c
bxxxxxxxxxxxxxxxxxxxxxxxxxxxxxxxx )
bxxxxxxxxxxxxxxxxxxxxxxxxxxxxxxxx e
#15000
0!
0#
0a
#15300
b00000000000000000000000000110000 "c
b00000000000000000000000000110000 )
b00000000000000000000000000110000 e
