out-of-order/rob/sim/presyn/rob.vcd
$date
	Thu Jun  8 21:34:51 2023
$end

$version
	Synopsys VCS version T-2022.06_Full64
$end

$timescale
	10ps
$end

$comment Csum: 1 d60318812caaaa52 $end


$scope module rob_tb $end
$var reg 1 ! clk_i $end
$var reg 1 " reset_i $end
$var reg 1 # allocate_req_i $end
$var reg 1 $ update_req_alu_i $end
$var reg 1 % update_req_lsu_i $end
$var reg 1 & update_req_mul_i $end
$var reg 5 ' prd_addr_i [4:0] $end
$var reg 32 ( pc_i [31:0] $end
$var reg 32 ) inst_i [31:0] $end
$var reg 5 * rob_idx_alu_i [4:0] $end
$var reg 32 + reg_value_alu_i [31:0] $end
$var reg 5 , rob_idx_lsu_i [4:0] $end
$var reg 32 - reg_value_lsu_i [31:0] $end
$var reg 5 . rob_idx_mul_i [4:0] $end
$var reg 32 / reg_value_mul_i [31:0] $end
$var wire 1 0 empty_o $end
$var wire 1 1 full_o $end
$var wire 5 2 rob_idx_o [4:0] $end
$var wire 1 3 commitment_valid_o $end
$var wire 32 4 inst_committed_o [31:0] $end
$var wire 32 5 pc_committed_o [31:0] $end
$var wire 5 6 prd_addr_committed_o [4:0] $end
$var wire 32 7 prd_value_committed_o [31:0] $end

$scope module rob0 $end
$var wire 1 8 clk_i $end
$var wire 1 9 reset_i $end
$var wire 1 : allocate_req_i $end
$var wire 1 ; update_req_alu_i $end
$var wire 1 < update_req_lsu_i $end
$var wire 1 = update_req_mul_i $end
$var wire 5 > prd_addr_i [4:0] $end
$var wire 32 ? pc_i [31:0] $end
$var wire 32 @ inst_i [31:0] $end
$var wire 5 A rob_idx_alu_i [4:0] $end
$var wire 32 B reg_value_alu_i [31:0] $end
$var wire 5 C rob_idx_lsu_i [4:0] $end
$var wire 32 D reg_value_lsu_i [31:0] $end
$var wire 5 E rob_idx_mul_i [4:0] $end
$var wire 32 F reg_value_mul_i [31:0] $end
$var wire 1 0 empty_o $end
$var wire 1 1 full_o $end
$var wire 5 2 rob_idx_o [4:0] $end
$var reg 1 G commitment_valid_o $end
$var reg 32 H inst_committed_o [31:0] $end
$var reg 32 I pc_committed_o [31:0] $end
$var reg 5 J prd_addr_committed_o [4:0] $end
$var reg 32 K prd_value_committed_o [31:0] $end
$var reg 5 L head [4:0] $end
$var reg 5 M tail [4:0] $end
$var reg 5 N fifo_cnt [4:0] $end
$var reg 32 O valid [31:0] $end
$var wire 1 P ready $end
$var wire 5 Q prd_addr_committed [4:0] $end
$var wire 32 R pc_committed [31:0] $end
$var wire 32 S inst_committed [31:0] $end
$var wire 32 T new_valid [31:0] $end
$var integer 32 U i $end

$scope begin unnamed$$_0 $end
$upscope $end


$scope module cbuf_prd $end
$var wire 1 8 clk_i $end
$var wire 1 9 reset_i $end
$var wire 1 : wr_i $end
$var wire 1 P rd_i $end
$var wire 5 > data_in_i [4:0] $end
$var wire 5 Q data_out_o [4:0] $end
$var wire 1 V empty_o $end
$var wire 1 W full_o $end
$var reg 5 X rd_ptr [4:0] $end
$var reg 5 Y wr_ptr [4:0] $end
$var reg 5 Z fifo_cnt [4:0] $end
$var integer 32 [ i $end
$upscope $end


$scope module cbuf_pc $end
$var wire 1 8 clk_i $end
$var wire 1 9 reset_i $end
$var wire 1 : wr_i $end
$var wire 1 P rd_i $end
$var wire 32 ? data_in_i [31:0] $end
$var wire 32 R data_out_o [31:0] $end
$var wire 1 \ empty_o $end
$var wire 1 ] full_o $end
$var reg 5 ^ rd_ptr [4:0] $end
$var reg 5 _ wr_ptr [4:0] $end
$var reg 5 ` fifo_cnt [4:0] $end
$var integer 32 a i $end
$upscope $end


$scope module cbuf_inst $end
$var wire 1 8 clk_i $end
$var wire 1 9 reset_i $end
$var wire 1 : wr_i $end
$var wire 1 P rd_i $end
$var wire 32 @ data_in_i [31:0] $end
$var wire 32 S data_out_o [31:0] $end
$var wire 1 b empty_o $end
$var wire 1 c full_o $end
$var reg 5 d rd_ptr [4:0] $end
$var reg 5 e wr_ptr [4:0] $end
$var reg 5 f fifo_cnt [4:0] $end
$var integer 32 g i $end
$upscope $end

$upscope $end

$upscope $end

$enddefinitions $end

#0
$dumpvars
0#
xb
0c
x\
0]
xV
0W
0!
x3
x0
01
xP
1"
0:
xG
19
0;
0<
0=
0$
0%
0&
bxxxxx f
bxxxxxxxxxxxxxxxxxxxxxxxxxxxxxxxx g
bxxxxx d
bxxxxx e
bxxxxx `
bxxxxxxxxxxxxxxxxxxxxxxxxxxxxxxxx a
bxxxxx Z
bxxxxxxxxxxxxxxxxxxxxxxxxxxxxxxxx [
bxxxxx X
bxxxxx Y
bxxxxx N
bxxxxx L
bxxxxxxxxxxxxxxxxxxxxxxxxxxxxxxxx U
bxxxxxxxxxxxxxxxxxxxxxxxxxxxxxxxx S
bxxxxxxxxxxxxxxxxxxxxxxxxxxxxxxxx 4
b00000000000000000000000000000000 )
bxxxxxxxxxxxxxxxxxxxxxxxxxxxxxxxx T
bxxxxxxxxxxxxxxxxxxxxxxxxxxxxxxxx R
bxxxxxxxxxxxxxxxxxxxxxxxxxxxxxxxx 5
b00000000000000000000000000000000 (
bxxxxx Q
bxxxxx 6
b00000 '
bxxxxxxxxxxxxxxxxxxxxxxxxxxxxxxxx 7
bxxxxx ^
b00000000000000000000000000000000 +
b00000000000000000000000000000000 -
b00000000000000000000000000000000 /
bxxxxxxxxxxxxxxxxxxxxxxxxxxxxxxxx H
b00000000000000000000000000000000 @
bxxxxxxxxxxxxxxxxxxxxxxxxxxxxxxxx I
b00000000000000000000000000000000 ?
bxxxxx J
b00000 >
bxxxxxxxxxxxxxxxxxxxxxxxxxxxxxxxx K
b00000000000000000000000000000000 B
b00000000000000000000000000000000 D
b00000000000000000000000000000000 F
b00000 A
b00000 C
b00000 E
b00000 *
b00000 ,
b00000 .
bxxxxx 2
bxxxxx M
bxxxxxxxxxxxxxxxxxxxxxxxxxxxxxxxx O
bxxxxx _
08
$end
#500
1!
18
b00000000000000000000000000100000 a
b00000000000000000000000000100000 g
b00000000000000000000000000100000 [
b00000 M
b00000 2
b00000 L
0G
03
b00000000000000000000000000000000 I
b00000000000000000000000000000000 5
b00000000000000000000000000000000 H
b00000000000000000000000000000000 4
b00000 J
b00000 6
b00000000000000000000000000000000 K
b00000000000000000000000000000000 7
b00000 N
10
b00000000000000000000000000000000 O
0P
b00000 _
b00000 ^
b00000000000000000000000000000000 R
b00000 e
b00000 d
b00000000000000000000000000000000 S
b00000 Y
b00000 X
b00000 Q
b00000000000000000000000000000000 T
#1000
0!
08
#1500
1!
18
0"
09
b00000 `
1\
b00000 f
1b
b00000 Z
1V
#2000
0!
08
#2500
1!
18
1#
1:
b00101 '
b00101 >
b01011010000000000000000010010011 )
b01011010000000000000000010010011 @
b00001 M
b00001 2
b00001 N
00
b00001 _
b00001 e
b01011010000000000000000010010011 S
b00001 Y
b00101 Q
#3000
0!
08
#3500
1!
18
b00011 '
b00011 >
b00000000000000000000000000000100 (
b00000000000000000000000000000100 ?
b00100010011000000000000100010011 )
b00100010011000000000000100010011 @
b00010 M
b00010 2
b01011010000000000000000010010011 H
b01011010000000000000000010010011 4
b00101 J
b00101 6
b00010 N
b00010 _
b00010 e
b00010 Y
#4000
0!
08
#4500
1!
18
1$
1;
b00110 '
b00110 >
b00000000000000000000000000001000 (
b00000000000000000000000000001000 ?
b00000010001000001110001010110011 )
b00000010001000001110001010110011 @
b00000000000000000000000000000001 T
b00011 M
b00011 2
b00011 N
b00011 _
b00011 e
b00011 Y
#5000
0!
08
#5500
1!
18
b00100 '
b00100 >
b00000000000000000000000000001100 (
b00000000000000000000000000001100 ?
b00000000000000010000000010010011 )
b00000000000000010000000010010011 @
b00010 *
b00010 A
b00000000000000000000000000000100 T
b00100 M
b00100 2
b00100 N
b00000000000000000000000000000001 O
1P
b00100 _
b00100 e
b00100 Y
b00000000000000000000000000000101 T
#6000
0!
08
#6500
1!
18
1%
1<
b00001 '
b00001 >
b00000000000000000000000000010000 (
b00000000000000000000000000010000 ?
b00000000000000101000000100010011 )
b00000000000000101000000100010011 @
b00001 *
b00001 A
b00000000000000000000000000000101 +
b00000000000000000000000000000101 B
b00011 ,
b00011 C
b00000000000000000000000000000100 -
b00000000000000000000000000000100 D
b00000000000000000000000000001011 T
b00101 M
b00101 2
b00001 L
0P
1G
13
b00000000000000000000000000000101 O
b00101 _
b00001 ^
b00000000000000000000000000000100 R
b00101 e
b00001 d
b00100010011000000000000100010011 S
b00101 Y
b00001 X
b00011 Q
b00000000000000000000000000001111 T
#7000
0!
08
#7500
1!
18
0#
0:
0$
0;
0%
0<
b00000 '
b00000 >
b00000000000000000000000000000000 (
b00000000000000000000000000000000 ?
b00000000000000000000000000000000 )
b00000000000000000000000000000000 @
b00000 *
b00000 A
b00000000000000000000000000000000 +
b00000000000000000000000000000000 B
b00000 ,
b00000 C
b00000000000000000000000000000000 -
b00000000000000000000000000000000 D
b00000000000000000000000000000101 T
0G
03
b00000000000000000000000000000100 I
b00000000000000000000000000000100 5
b00100010011000000000000100010011 H
b00100010011000000000000100010011 4
b00011 J
b00011 6
b00000000000000000000000000000101 K
b00000000000000000000000000000101 7
b00000000000000000000000000001111 O
1P
b00000000000000000000000000001111 T
#8000
0!
08
#8500
1!
18
b00010 L
1G
13
b00011 N
b00010 ^
b00000000000000000000000000001000 R
b00010 d
b00000010001000001110001010110011 S
b00010 X
b00110 Q
#9000
0!
08
#9500
1!
18
b00011 L
b00000000000000000000000000001000 I
b00000000000000000000000000001000 5
b00000010001000001110001010110011 H
b00000010001000001110001010110011 4
b00110 J
b00110 6
b00000000000000000000000000000000 K
b00000000000000000000000000000000 7
b00010 N
b00011 ^
b00000000000000000000000000001100 R
b00011 d
b00000000000000010000000010010011 S
b00011 X
b00100 Q
#10000
0!
08
#10500
1!
18
b00100 L
0P
b00000000000000000000000000001100 I
b00000000000000000000000000001100 5
b00000000000000010000000010010011 H
b00000000000000010000000010010011 4
b00100 J
b00100 6
b00000000000000000000000000000100 K
b00000000000000000000000000000100 7
b00001 N
b00100 ^
b00000000000000000000000000010000 R
b00100 d
b00000000000000101000000100010011 S
b00100 X
b00001 Q
