in-order/top_level_no_macros/sim/presyn/toplevel.vcd
$date
	Wed May 31 22:29:14 2023
$end

$version
	Synopsys VCS version T-2022.06_Full64
$end

$timescale
	10ps
$end

$comment Csum: 1 ae75a941dec33327 $end


$scope module toplevel_tb $end
$var reg 1 ! clk $end
$var reg 1 " reset $end

$scope module dut $end
$var wire 1 # clk $end
$var wire 1 $ reset $end
$var wire 32 % dmem_rdata [31:0] $end
$var wire 1 & dmem_w_en $end
$var wire 32 ' dmem_wdata [31:0] $end
$var wire 6 ( dmem_addr [5:0] $end
$var wire 32 ) instruction_if [31:0] $end
$var wire 32 * pc_if [31:0] $end

$scope module cpu0 $end
$var wire 1 # clk $end
$var wire 1 $ reset $end
$var wire 32 % dmem_rdata [31:0] $end
$var wire 1 & dmem_w_en $end
$var wire 32 ' dmem_wdata [31:0] $end
$var wire 6 ( dmem_addr [5:0] $end
$var wire 32 ) instruction_if [31:0] $end
$var wire 32 * pc_if [31:0] $end
$var wire 1 + hazard_flag $end
$var wire 1 , StallFetch $end
$var wire 1 - StallDecode $end
$var wire 32 . pc_id [31:0] $end
$var wire 32 / instruction_id [31:0] $end
$var wire 5 0 rs1_addr [4:0] $end
$var wire 5 1 rs2_addr [4:0] $end
$var wire 32 2 rs1_data [31:0] $end
$var wire 32 3 rs2_data [31:0] $end
$var wire 1 4 StallDecode_i $end
$var wire 32 5 pc_ex [31:0] $end
$var wire 5 6 rd_addr_ex [4:0] $end
$var wire 32 7 rs1_data_ex [31:0] $end
$var wire 32 8 rs2_data_ex [31:0] $end
$var wire 1 9 rf_w_en_ex $end
$var wire 2 : opsel1 [1:0] $end
$var wire 2 ; opsel2 [1:0] $end
$var wire 2 < wbsel_ex [1:0] $end
$var wire 4 = alu_func [3:0] $end
$var wire 1 > mem_w_en_ex $end
$var wire 32 ? pc_mem [31:0] $end
$var wire 5 @ rd_addr_mem [4:0] $end
$var wire 1 A rf_w_en_mem $end
$var wire 32 B alu_out_mem [31:0] $end
$var wire 32 C imm_mem [31:0] $end
$var wire 2 D wbsel_mem [1:0] $end
$var wire 1 E mem_w_en_mem $end
$var wire 32 F rs2_data_mem [31:0] $end
$var wire 32 G pc_wb [31:0] $end
$var wire 5 H rd_addr_wb [4:0] $end
$var wire 1 I rf_w_en_wb $end
$var wire 32 J alu_out_wb [31:0] $end
$var wire 32 K rf_wdata_wb [31:0] $end
$var wire 32 L load_data_wb [31:0] $end
$var wire 32 M imm_wb [31:0] $end
$var wire 2 N wbsel_wb [1:0] $end
$var wire 2 O pcsel [1:0] $end
$var wire 32 P br_tar [31:0] $end

$scope module hazard_detect0 $end
$var reg 5 Q SourceReg1Dec [4:0] $end
$var reg 5 R SourceReg2Dec [4:0] $end
$var reg 5 S SourceReg1Exec [4:0] $end
$var reg 5 T SourceReg2Exec [4:0] $end
$var reg 5 U DestRegExec [4:0] $end
$var reg 5 V DestRegMem [4:0] $end
$var reg 5 W DestRegWriteBack [4:0] $end
$var reg 1 X RegisterWriteMem $end
$var reg 1 Y RegisterWriteWriteBack $end
$var reg 1 Z ResultSourceExec0 $end
$var reg 1 [ ProgramCounterSourceExec $end
$var reg 2 \ ForwardingReg1Exec [1:0] $end
$var reg 2 ] ForwardingReg2Exec [1:0] $end
$var reg 1 ^ StallDecode_o $end
$var reg 1 _ StallFetch_o $end
$var reg 1 ` FlushDecode $end
$var reg 1 a FlushExec $end
$var reg 1 b LoadWordStall $end
$var reg 1 c RAW_hazard $end
$upscope $end


$scope module fetch0 $end
$var reg 1 d clk $end
$var reg 1 e reset $end
$var reg 2 f pcsel [1:0] $end
$var reg 32 g br_dest [31:0] $end
$var reg 32 h instr_if [31:0] $end
$var reg 32 i pc_if [31:0] $end
$var reg 32 j pc_o [31:0] $end
$var reg 32 k instr_o [31:0] $end
$var reg 1 l hazard_flag_i $end
$var wire 1 , StallFetch_i $end
$var reg 32 m pc [31:0] $end
$upscope $end


$scope module decode0 $end
$var wire 1 # clk $end
$var wire 1 $ reset $end
$var wire 32 . pc_i [31:0] $end
$var wire 32 / inst [31:0] $end
$var wire 32 2 rs1_value_i [31:0] $end
$var wire 32 3 rs2_value_i [31:0] $end
$var wire 1 4 StallDecode_i $end
$var reg 32 n pc_o [31:0] $end
$var reg 4 o alu_func [3:0] $end
$var reg 2 p opsel1 [1:0] $end
$var reg 2 q opsel2 [1:0] $end
$var reg 2 r wbsel [1:0] $end
$var reg 5 s rs1_addr [4:0] $end
$var reg 5 t rs2_addr [4:0] $end
$var reg 5 u rd_addr [4:0] $end
$var reg 32 v rs1_value_o [31:0] $end
$var reg 32 w rs2_value_o [31:0] $end
$var reg 1 x rf_w_en $end
$var reg 1 y mem_w_en $end
$var reg 32 z imm [31:0] $end
$var reg 2 { pcsel [1:0] $end
$var reg 32 | branch_tar [31:0] $end
$var wire 5 } rs1 [4:0] $end
$var wire 5 ~ rs2 [4:0] $end
$var wire 5 "! rd [4:0] $end
$var wire 7 "" opcode [6:0] $end
$var wire 3 "# funct3 [2:0] $end
$var wire 7 "$ funct7 [6:0] $end
$var wire 12 "% imm_i [11:0] $end
$var wire 20 "& imm_u [19:0] $end
$var wire 12 "' imm_s [11:0] $end
$var wire 32 "( br_addr [31:0] $end
$var wire 32 ") jal_addr [31:0] $end
$var wire 32 "* jalr_addr [31:0] $end
$var wire 1 "+ branch_cond_eq $end
$var wire 1 ", branch_cond_ne $end
$var wire 1 "- branch_cond_lt $end
$var wire 1 ". branch_cond_ge $end
$var wire 1 "/ branch_cond_ltu $end
$var wire 1 "0 branch_cond_geu $end
$var reg 4 "1 alu_func_id [3:0] $end
$var reg 2 "2 opsel1_id [1:0] $end
$var reg 2 "3 opsel2_id [1:0] $end
$var reg 2 "4 wbsel_id [1:0] $end
$var reg 5 "5 rd_addr_id [4:0] $end
$var reg 1 "6 rf_w_en_id $end
$var reg 1 "7 mem_w_en_id $end
$var reg 32 "8 imm_id [31:0] $end
$upscope $end


$scope module regfile0 $end
$var wire 1 # clk $end
$var wire 1 $ reset $end
$var wire 1 I w_en $end
$var wire 5 0 ra_addr [4:0] $end
$var wire 5 1 rb_addr [4:0] $end
$var wire 5 H rd_addr [4:0] $end
$var wire 32 K w_data [31:0] $end
$var wire 32 2 ra_value [31:0] $end
$var wire 32 3 rb_value [31:0] $end
$var integer 32 "9 i $end
$upscope $end


$scope module exec0 $end
$var wire 1 # clk $end
$var wire 1 $ reset $end
$var wire 2 : opsel1 [1:0] $end
$var wire 2 ; opsel2 [1:0] $end
$var wire 4 = alu_func [3:0] $end
$var wire 32 7 rs1_data_i [31:0] $end
$var wire 32 8 rs2_data_i [31:0] $end
$var wire 32 C imm [31:0] $end
$var wire 32 5 pc_i [31:0] $end
$var wire 5 6 rd_addr_i [4:0] $end
$var wire 1 9 rf_w_en_i $end
$var wire 2 < wbsel_i [1:0] $end
$var wire 1 > mem_w_en_i $end
$var wire 7 ": funct7 [6:0] $end
$var wire 3 "; funct3 [2:0] $end
$var reg 32 "< pc_o [31:0] $end
$var reg 32 "= alu_out [31:0] $end
$var reg 5 "> rd_addr_o [4:0] $end
$var reg 1 "? rf_w_en_o $end
$var reg 2 "@ wbsel_o [1:0] $end
$var reg 1 "A mem_w_en_o $end
$var reg 32 "B rs2_data_o [31:0] $end
$var reg 32 "C alu_op1 [31:0] $end
$var reg 32 "D alu_op2 [31:0] $end
$var wire 32 "E alu_out_temp [31:0] $end

$scope module alu0 $end
$var wire 7 ": funct7 [6:0] $end
$var wire 3 "; funct3 [2:0] $end
$var wire 32 "F alu_op1 [31:0] $end
$var wire 32 "G alu_op2 [31:0] $end
$var wire 4 = alu_func [3:0] $end
$var reg 32 "H alu_out [31:0] $end
$var reg 64 "I alu_out_temp [63:0] $end
$upscope $end

$upscope $end


$scope module memaccess0 $end
$var wire 1 # clk $end
$var wire 1 $ reset $end
$var wire 32 ? pc_i [31:0] $end
$var wire 32 B alu_result_i [31:0] $end
$var wire 32 % mem_r_i [31:0] $end
$var wire 5 @ rd_addr_i [4:0] $end
$var wire 1 A rf_w_en_i $end
$var wire 32 C imm_i [31:0] $end
$var wire 2 D wbsel_i [1:0] $end
$var reg 32 "J pc_o [31:0] $end
$var reg 32 "K alu_result_o [31:0] $end
$var reg 32 "L load_data [31:0] $end
$var reg 5 "M rd_addr_o [4:0] $end
$var reg 1 "N rf_w_en_o $end
$var reg 32 "O imm_o [31:0] $end
$var reg 2 "P wbsel_o [1:0] $end
$upscope $end


$scope module wb0 $end
$var wire 2 N wbsel [1:0] $end
$var wire 32 J alu_result [31:0] $end
$var wire 32 L dmem_result [31:0] $end
$var wire 32 M imm [31:0] $end
$var wire 32 G pc_i [31:0] $end
$var reg 32 "Q rf_wdata [31:0] $end
$upscope $end

$upscope $end


$scope module dcache0 $end
$var wire 1 # clk $end
$var wire 1 $ reset $end
$var wire 1 & w_en $end
$var wire 32 ' wdata [31:0] $end
$var wire 6 ( raddr [5:0] $end
$var wire 6 ( waddr [5:0] $end
$var wire 32 % rdata [31:0] $end
$var integer 32 "R i $end
$upscope $end


$scope module instruction_memory $end
$var reg 32 "S addr [31:0] $end
$var reg 32 "T data [31:0] $end
$var integer 32 "U i $end
$upscope $end

$upscope $end

$upscope $end

$enddefinitions $end

#0
$dumpvars
0`
xa
xb
0[
0c
xX
xY
xZ
x-
z4
x^
x,
x_
x"+
x".
x"0
x"-
x"/
x",
0!
1e
z+
xl
bxxxxxxxxxxxxxxxxxxxxxxxxxxxxxxxx )
xy
x>
0"7
x"A
x"N
1"
xx
x9
0"6
xA
x"?
bxxxxx U
bxxxxx V
bxxxxx W
bxx \
bxx ]
b00000 Q
bxxxxx S
b00000 R
bxxxxx T
bxxxxxxxxxxxxxxxxxxxxxxxxxxxxxxxx "F
bxxxxxxxxxxxxxxxxxxxxxxxxxxxxxxxx "G
bxxxxxxxxxxxxxxxxxxxxxxxxxxxxxxxx "H
bxxxxxxxxxxxxxxxxxxxxxxxxxxxxxxxxxxxxxxxxxxxxxxxxxxxxxxxxxxxxxxxx "I
bxxxx =
b0000 "1
bxxxxxxxxxxxxxxxxxxxxxxxxxxxxxxxx "C
bxxxxxxxxxxxxxxxxxxxxxxxxxxxxxxxx "D
bxxxxxxxxxxxxxxxxxxxxxxxxxxxxxxxx "=
bxxxxxxxxxxxxxxxxxxxxxxxxxxxxxxxx B
bxxxxxxxxxxxxxxxxxxxxxxxxxxxxxxxx "E
bxxxxxxxxxxxxxxxxxxxxxxxxxxxxxxxx "K
bxxxxxxxxxxxxxxxxxxxxxxxxxxxxxxxx "(
b00000000000000000000000000000000 g
b00000000000000000000000000000000 P
b00000000000000000000000000000000 |
bxxxx o
bxx p
bxx q
bxxxxxxxxxxxxxxxxxxxxxxxxxxxxxxxx n
b00 {
b00000 s
b00000 t
bxxxxxxxxxxxxxxxxxxxxxxxxxxxxxxxx "<
bxxxxxxxxxxxxxxxxxxxxxxxxxxxxxxxx i
b00 f
bxxxxxxxxxxxxxxxxxxxxxxxxxxxxxxxx z
bxxxxxxxxxxxx "%
b00000000000000000000000000000000 "8
bxxxxxxxxxxxxxxxxxxxxxxxxxxxxxxxx C
bxxxxxxxxxxxxxxxxxxxxxxxxxxxxxxxx "O
bxxxxxxxxxxxx "'
bxxxxxxxxxxxxxxxxxxxx "&
bxxxxxxxxxxxxxxxxxxxxxxxxxxxxxxxx h
bxxxxxxxxxxxxxxxxxxxxxxxxxxxxxxxx k
bxxxxxxxxxxxxxxxxxxxxxxxxxxxxxxxx /
bxxxxxxxxxxxxxxxxxxxxxxxxxxxxxxxx ")
bxxxxxxxxxxxxxxxxxxxxxxxxxxxxxxxx "*
bxxxxxxxxxxxxxxxxxxxxxxxxxxxxxxxx "L
bxxxxxxxxxxxxxxxxxxxxxxxxxxxxxxxx "J
bxxxxx "M
bxx "P
bxx :
b00 "2
bxx ;
b00 "3
bxxxxxxxxxxxxxxxxxxxxxxxxxxxxxxxx m
bxxxxxxxxxxxxxxxxxxxxxxxxxxxxxxxx 5
bxxxxxxxxxxxxxxxxxxxxxxxxxxxxxxxx .
bxxxxxxxxxxxxxxxxxxxxxxxxxxxxxxxx *
bxxxxxxxxxxxxxxxxxxxxxxxxxxxxxxxx ?
bxxxxxxxxxxxxxxxxxxxxxxxxxxxxxxxx j
b00 O
bxxxxx u
bxxxxx 6
b00000 "5
bxxxxx @
bxxxxx ">
bxxxxxxxxxxxxxxxxxxxxxxxxxxxxxxxx 7
bxxxxxxxxxxxxxxxxxxxxxxxxxxxxxxxx v
bxxxxxxxxxxxxxxxxxxxxxxxxxxxxxxxx 8
bxxxxxxxxxxxxxxxxxxxxxxxxxxxxxxxx F
bxxxxxxxxxxxxxxxxxxxxxxxxxxxxxxxx "B
bxxxxxxxxxxxxxxxxxxxxxxxxxxxxxxxx w
bxxxxxxx ":
bxxx ";
bxxxxx }
bxxxxx ~
bxxxxx "!
bxxxxxxx ""
bxxx "#
bxxxxxxx "$
bxx r
bxx <
b00 "4
bxx D
bxx "@
bxxxxxxxxxxxxxxxxxxxxxxxxxxxxxxxx "9
bxxxxxxxxxxxxxxxxxxxxxxxxxxxxxxxx "Q
bxxxxxxxxxxxxxxxxxxxxxxxxxxxxxxxx "R
bxxxxxxxxxxxxxxxxxxxxxxxxxxxxxxxx "S
bxxxxxxxxxxxxxxxxxxxxxxxxxxxxxxxx "T
b00000000000000000000000011000000 "U
xE
x&
0#
1$
xI
b00000 0
b00000 1
bxxxxx H
bxxxxxxxxxxxxxxxxxxxxxxxxxxxxxxxx K
bxxxxxxxxxxxxxxxxxxxxxxxxxxxxxxxx 2
bxxxxxxxxxxxxxxxxxxxxxxxxxxxxxxxx 3
bxx N
bxxxxxxxxxxxxxxxxxxxxxxxxxxxxxxxx J
bxxxxxxxxxxxxxxxxxxxxxxxxxxxxxxxx L
bxxxxxxxxxxxxxxxxxxxxxxxxxxxxxxxx M
bxxxxxxxxxxxxxxxxxxxxxxxxxxxxxxxx G
bxxxxxxxxxxxxxxxxxxxxxxxxxxxxxxxx '
bxxxxxx (
bxxxxxxxxxxxxxxxxxxxxxxxxxxxxxxxx %
0d
$end
#500
1!
1#
1d
b00000000000000000000000000100000 "9
b00000000000000000000000000100000 "R
b00000000000000000000000000000000 n
b00000000000000000000000000000000 5
b0000 o
b0000 =
b00 p
b00 :
b00 q
b00 ;
b00 r
b00 <
b00000 u
b00000 6
b00000 U
0x
09
0y
0>
b00000000000000000000000000000000 z
b00000000000000000000000000000000 C
b00000000000000000000000000000000 v
b00000000000000000000000000000000 7
b00000 S
b00000000000000000000000000000000 w
b00000000000000000000000000000000 8
b00000 T
b00000000000000000000000000000000 "<
b00000000000000000000000000000000 ?
b00000000000000000000000000000000 "=
b00000000000000000000000000000000 B
b000000 (
b00000 ">
b00000 @
b00000 V
0"?
0A
0X
b00 "@
b00 D
0"A
0E
0&
b00000000000000000000000000000000 "B
b00000000000000000000000000000000 F
b00000000000000000000000000000000 '
b00000000000000000000000000000000 "J
b00000000000000000000000000000000 G
b00000000000000000000000000000000 "K
b00000000000000000000000000000000 J
b00000 "M
b00000 H
b00000 W
0"N
0I
0Y
b00000000000000000000000000000000 "L
b00000000000000000000000000000000 L
b00000000000000000000000000000000 "O
b00000000000000000000000000000000 M
b00 "P
b00 N
b00000000000000000000000000000000 3
b00000000000000000000000000000000 2
1".
0"-
1"0
0"/
0",
1"+
b00000000000000000000000000000000 m
b00000000000000000000000000000000 i
b00000000000000000000000000000000 *
b00000000000000000000000000000000 "S
b00000000001000010000000010010011 "T
b00000000000000000000000000000000 j
b00000000000000000000000000000000 .
b00000000000000000000000000000000 k
b00000000000000000000000000000000 /
b0000000 ":
b000 ";
b00000 }
b00000 ~
b00000 "!
b0000000 ""
b000 "#
b0000000 "$
b0000000xxxxx "'
b000000000000 "'
b00000000000000000000 "&
b000000000000 "%
b00000000000000000000000000000000 "C
b00000000000000000000000000000000 "F
b0000000000000000000000000000000000000000000000000000000000000000 "I
b00000000000000000000000000000000 "D
b00000000000000000000000000000000 "G
b00000000000000000000000000000000 "Q
b00000000000000000000000000000000 K
b00000000001000010000000010010011 )
b00000000001000010000000010010011 h
b00000000000000000000000000000000 ")
b00000000000000000000000000000000 "(
b00000000000000000000000000000000 "*
b00000000000000000000000000000000 "H
b00000000000000000000000000000000 "E
#1000
0!
0#
0d
#1500
1!
1#
1d
#2000
0"
0$
0e
0!
0#
0d
#2500
1!
1#
1d
bxxxxxxxxxxxxxxxxxxxxxxxxxxxxxxxx "L
bxxxxxxxxxxxxxxxxxxxxxxxxxxxxxxxx L
b00000000000000000000000000000100 m
b00000000000000000000000000000100 i
b00000000000000000000000000000100 *
b00000000000000000000000000000100 "S
b00000000001100100001000110010011 "T
b00000000001000010000000010010011 k
b00000000001000010000000010010011 /
b00010 }
b00010 ~
b00001 "!
b0010011 ""
b000000000001 "'
b00000000001000010000 "&
b000000000010 "%
b00000000001100100001000110010011 )
b00000000001100100001000110010011 h
b00000000000000000000000000000010 "8
1"6
b00001 "5
b00010 s
b00010 0
b00010 Q
b10 "3
b01 "2
b0001 "1
b00000000000000000000000000000100 "*
b00000000000000010000000000000010 ")
b00000000000000000000100000000000 "(
1c
1^
1-
1_
1,
#3000
0!
0#
0d
#3500
1!
1#
1d
b0001 o
b0001 =
b01 p
b01 :
b10 q
b10 ;
b00001 u
b00001 6
b00001 U
1x
19
b00000000000000000000000000000010 z
b00000000000000000000000000000010 C
b00000000000000000000000000001000 m
b00000000000000000000000000001000 i
b00000000000000000000000000001000 *
b00000000000000000000000000001000 "S
b00000000011100110010001010010011 "T
b00000000000000000000000000000010 "D
b00000000000000000000000000000010 "G
0b
0a
b00000000011100110010001010010011 )
b00000000011100110010001010010011 h
b0000000000000000000000000000000000000000000000000000000000000010 "I
b00000000000000000000000000000010 "H
b00000000000000000000000000000010 "E
#4000
0!
0#
0d
#4500
1!
1#
1d
b00000000000000000000000000000010 "=
b00000000000000000000000000000010 B
b00001 ">
b00001 @
b00001 V
1"?
1A
1X
b00000000000000000000000000000010 "O
b00000000000000000000000000000010 M
b00000000000000000000000000001100 m
b00000000000000000000000000001100 i
b00000000000000000000000000001100 *
b00000000000000000000000000001100 "S
b00000000100101000011001110010011 "T
0c
0^
0-
0_
0,
b00000000100101000011001110010011 )
b00000000100101000011001110010011 h
#5000
0!
0#
0d
#5500
1!
1#
1d
b00000000000000000000000000000010 "K
b00000000000000000000000000000010 J
b00001 "M
b00001 H
b00001 W
1"N
1I
1Y
b00000000000000000000000000010000 m
b00000000000000000000000000010000 i
b00000000000000000000000000010000 *
b00000000000000000000000000010000 "S
b00000000110001010100010010010011 "T
b00000000000000000000000000001100 j
b00000000000000000000000000001100 .
b00000000100101000011001110010011 k
b00000000100101000011001110010011 /
b011 ";
b01000 }
b01001 ~
b00111 "!
b011 "#
b000000000111 "'
b00000000100101000011 "&
b000000001001 "%
b00000000000000000000000000000010 "Q
b00000000000000000000000000000010 K
b00000000110001010100010010010011 )
b00000000110001010100010010010011 h
b00000000000001000011100000010100 ")
b00000000000000000000100000010010 "(
b00000000000000000000000000001001 "8
b00111 "5
b01000 s
b01000 0
b01000 Q
b0111 "1
b00000000000000000000000000010001 "*
#6000
0!
0#
0d
#6500
1!
1#
1d
b00000000000000000000000000001100 n
b00000000000000000000000000001100 5
b0111 o
b0111 =
b00111 u
b00111 6
b00111 U
b00000000000000000000000000001001 z
b00000000000000000000000000001001 C
b00000000000000000000000000010100 m
b00000000000000000000000000010100 i
b00000000000000000000000000010100 *
b00000000000000000000000000010100 "S
b01000000010001100101010110010011 "T
b00000000000000000000000000010000 j
b00000000000000000000000000010000 .
b00000000110001010100010010010011 k
b00000000110001010100010010010011 /
b100 ";
b01010 }
b01100 ~
b01001 "!
b100 "#
b000000001001 "'
b00000000110001010100 "&
b000000001100 "%
b0000000000000000000000000000000000000000000000000000000000000001 "I
b00000000000000000000000000001100 "8
b01001 "5
b01010 s
b01010 0
b01010 Q
b0101 "1
b00000000000000000000000000001001 "D
b00000000000000000000000000001001 "G
b01000000010001100101010110010011 )
b01000000010001100101010110010011 h
b00000000000001010100000000011100 ")
b00000000000000000000100000011000 "(
b00000000000000000000000000010110 "*
b00000000000000000000000000000001 "H
b00000000000000000000000000000001 "E
#7000
0!
0#
0d
#7500
1!
1#
1d
b00000000000000000000000000010000 n
b00000000000000000000000000010000 5
b0101 o
b0101 =
b01001 u
b01001 6
b01001 U
b00000000000000000000000000001100 z
b00000000000000000000000000001100 C
b00000000000000000000000000001100 "<
b00000000000000000000000000001100 ?
b00000000000000000000000000000001 "=
b00000000000000000000000000000001 B
b00111 ">
b00111 @
b00111 V
b00000000000000000000000000001001 "O
b00000000000000000000000000001001 M
b00000000000000000000000000011000 m
b00000000000000000000000000011000 i
b00000000000000000000000000011000 *
b00000000000000000000000000011000 "S
b00000000010101110101011010010011 "T
b00000000000000000000000000010100 j
b00000000000000000000000000010100 .
b01000000010001100101010110010011 k
b01000000010001100101010110010011 /
b0100000 ":
b101 ";
b01100 }
b00100 ~
b01011 "!
b101 "#
b0100000 "$
b010000001001 "'
b010000001011 "'
b01000000010001100101 "&
b010000000100 "%
b0000000000000000000000000000000000000000000000000000000000001001 "I
b01011 "5
b01100 s
b01100 0
b01100 Q
b1001 "1
b00000000000000000000000000001100 "D
b00000000000000000000000000001100 "G
b00000000010101110101011010010011 )
b00000000010101110101011010010011 h
b00000000000001100101010000011000 ")
b00000000000000000000110000011110 "(
b00000000000000000000010000010000 "*
b00000000000000000000000000001001 "H
b00000000000000000000000000001001 "E
b0000000000000000000000000000000000000000000000000000000000001100 "I
b00000000000000000000000000001100 "H
b00000000000000000000000000001100 "E
#8000
0!
0#
0d
#8500
1!
1#
1d
b00000000000000000000000000010100 n
b00000000000000000000000000010100 5
b1001 o
b1001 =
b01011 u
b01011 6
b01011 U
b00000000000000000000000000010000 "<
b00000000000000000000000000010000 ?
b00000000000000000000000000001100 "=
b00000000000000000000000000001100 B
b000011 (
b00000000000000000000000000000000 %
b01001 ">
b01001 @
b01001 V
b00000000000000000000000000001100 "J
b00000000000000000000000000001100 G
b00000000000000000000000000000001 "K
b00000000000000000000000000000001 J
b00111 "M
b00111 H
b00111 W
b00000000000000000000000000001100 "O
b00000000000000000000000000001100 M
b00000000000000000000000000011100 m
b00000000000000000000000000011100 i
b00000000000000000000000000011100 *
b00000000000000000000000000011100 "S
b00000000101010000110011110010011 "T
b00000000000000000000000000011000 j
b00000000000000000000000000011000 .
b00000000010101110101011010010011 k
b00000000010101110101011010010011 /
b0000000 ":
b01110 }
b00101 ~
b01101 "!
b0000000 "$
b000000001011 "'
b000000001101 "'
b00000000010101110101 "&
b000000000101 "%
b0000000000000000000000000000000000000000000000000000000000000000 "I
b00000000000000000000000000000001 "Q
b00000000000000000000000000000001 K
b00000000101010000110011110010011 )
b00000000101010000110011110010011 h
b00000000000001110101100000011100 ")
b00000000000000000000100000100100 "(
b01101 "5
b01110 s
b01110 0
b01110 Q
b1010 "1
b00000000000000000000000000010011 "*
b00000000000000000000000000000000 "H
b00000000000000000000000000000000 "E
#9000
0!
0#
0d
#9500
1!
1#
1d
b00000000000000000000000000011000 n
b00000000000000000000000000011000 5
b1010 o
b1010 =
b01101 u
b01101 6
b01101 U
b00000000000000000000000000010100 "<
b00000000000000000000000000010100 ?
b00000000000000000000000000000000 "=
b00000000000000000000000000000000 B
b000000 (
bxxxxxxxxxxxxxxxxxxxxxxxxxxxxxxxx %
b01011 ">
b01011 @
b01011 V
b00000000000000000000000000010000 "J
b00000000000000000000000000010000 G
b00000000000000000000000000001100 "K
b00000000000000000000000000001100 J
b01001 "M
b01001 H
b01001 W
b00000000000000000000000000000000 "L
b00000000000000000000000000000000 L
b00000000000000000000000000100000 m
b00000000000000000000000000100000 i
b00000000000000000000000000100000 *
b00000000000000000000000000100000 "S
b00000000111110010111100010010011 "T
b00000000000000000000000000011100 j
b00000000000000000000000000011100 .
b00000000101010000110011110010011 k
b00000000101010000110011110010011 /
b110 ";
b10000 }
b01010 ~
b01111 "!
b110 "#
b000000001111 "'
b00000000101010000110 "&
b000000001010 "%
b00000000000000000000000000001100 "Q
b00000000000000000000000000001100 K
b00000000111110010111100010010011 )
b00000000111110010111100010010011 h
b00000000000010000110000000100110 ")
b00000000000000000000100000101010 "(
b00000000000000000000000000001010 "8
b01111 "5
b10000 s
b10000 0
b10000 Q
b0100 "1
b00000000000000000000000000011010 "*
#10000
0!
0#
0d
#10500
1!
1#
1d
b00000000000000000000000000011100 n
b00000000000000000000000000011100 5
b0100 o
b0100 =
b01111 u
b01111 6
b01111 U
b00000000000000000000000000001010 z
b00000000000000000000000000001010 C
b00000000000000000000000000011000 "<
b00000000000000000000000000011000 ?
b01101 ">
b01101 @
b01101 V
b00000000000000000000000000010100 "J
b00000000000000000000000000010100 G
b00000000000000000000000000000000 "K
b00000000000000000000000000000000 J
b01011 "M
b01011 H
b01011 W
bxxxxxxxxxxxxxxxxxxxxxxxxxxxxxxxx "L
bxxxxxxxxxxxxxxxxxxxxxxxxxxxxxxxx L
b00000000000000000000000000100100 m
b00000000000000000000000000100100 i
b00000000000000000000000000100100 *
b00000000000000000000000000100100 "S
b00000000001100010000000010110011 "T
b00000000000000000000000000100000 j
b00000000000000000000000000100000 .
b00000000111110010111100010010011 k
b00000000111110010111100010010011 /
b111 ";
b10010 }
b01111 ~
b10001 "!
b111 "#
b000000010001 "'
b00000000111110010111 "&
b000000001111 "%
b0000000000000000000000000000000000000000000000000000000000001100 "I
b00000000000000000000000000001111 "8
b10001 "5
b10010 s
b10010 0
b10010 Q
b0011 "1
b00000000000000000000000000001010 "D
b00000000000000000000000000001010 "G
b00000000000000000000000000000000 "Q
b00000000000000000000000000000000 K
b00000000001100010000000010110011 )
b00000000001100010000000010110011 h
b00000000000010010111100000101110 ")
b00000000000000000000100000110000 "(
b00000000000000000000000000100001 "*
b00000000000000000000000000001100 "H
b00000000000000000000000000001100 "E
b0000000000000000000000000000000000000000000000000000000000001010 "I
b00000000000000000000000000001010 "H
b00000000000000000000000000001010 "E
#11000
0!
0#
0d
#11500
1!
1#
1d
b00000000000000000000000000100000 n
b00000000000000000000000000100000 5
b0011 o
b0011 =
b10001 u
b10001 6
b10001 U
b00000000000000000000000000001111 z
b00000000000000000000000000001111 C
b00000000000000000000000000011100 "<
b00000000000000000000000000011100 ?
b00000000000000000000000000001010 "=
b00000000000000000000000000001010 B
b000010 (
b00000000000000000000000000000000 %
b01111 ">
b01111 @
b01111 V
b00000000000000000000000000011000 "J
b00000000000000000000000000011000 G
b01101 "M
b01101 H
b01101 W
b00000000000000000000000000001010 "O
b00000000000000000000000000001010 M
b00000000000000000000000000101000 m
b00000000000000000000000000101000 i
b00000000000000000000000000101000 *
b00000000000000000000000000101000 "S
b01000000011000101000001000110011 "T
b00000000000000000000000000100100 j
b00000000000000000000000000100100 .
b00000000001100010000000010110011 k
b00000000001100010000000010110011 /
b000 ";
b00010 }
b00011 ~
b00001 "!
b0110011 ""
b000 "#
b000000000001 "'
b00000000001100010000 "&
b000000000011 "%
b0000000000000000000000000000000000000000000000000000000000000000 "I
b00000000000000000000000000000000 "8
b00001 "5
b00011 t
b00011 1
b00011 R
b00010 s
b00010 0
b00010 Q
b01 "3
b0001 "1
b00000000000000000000000000001111 "D
b00000000000000000000000000001111 "G
b01000000011000101000001000110011 )
b01000000011000101000001000110011 h
b00000000000000010000100000100110 ")
b00000000000000000000100000100100 "(
b00000000000000000000000000000101 "*
b00000000000000000000000000000000 "H
b00000000000000000000000000000000 "E
#12000
0!
0#
0d
#12500
1!
1#
1d
b00000000000000000000000000100100 n
b00000000000000000000000000100100 5
b0001 o
b0001 =
b01 q
b01 ;
b00001 u
b00001 6
b00001 U
b00000000000000000000000000000000 z
b00000000000000000000000000000000 C
b00000000000000000000000000100000 "<
b00000000000000000000000000100000 ?
b00000000000000000000000000000000 "=
b00000000000000000000000000000000 B
b000000 (
bxxxxxxxxxxxxxxxxxxxxxxxxxxxxxxxx %
b10001 ">
b10001 @
b10001 V
b00000000000000000000000000011100 "J
b00000000000000000000000000011100 G
b00000000000000000000000000001010 "K
b00000000000000000000000000001010 J
b01111 "M
b01111 H
b01111 W
b00000000000000000000000000000000 "L
b00000000000000000000000000000000 L
b00000000000000000000000000001111 "O
b00000000000000000000000000001111 M
b00000000000000000000000000101100 m
b00000000000000000000000000101100 i
b00000000000000000000000000101100 *
b00000000000000000000000000101100 "S
b00000000100101000001001110110011 "T
b00000000000000000000000000101000 j
b00000000000000000000000000101000 .
b01000000011000101000001000110011 k
b01000000011000101000001000110011 /
b0100000 ":
b00101 }
b00110 ~
b00100 "!
b0100000 "$
b010000000001 "'
b010000000100 "'
b01000000011000101000 "&
b010000000110 "%
b0000000000000000000000000000000000000000000000000000000000001111 "I
b00000000000000000000000000000000 "D
b00000000000000000000000000000000 "G
b00100 "5
b00110 t
b00110 1
b00110 R
b00101 s
b00101 0
b00101 Q
b0010 "1
b00000000000000000000000000001010 "Q
b00000000000000000000000000001010 K
b00000000100101000001001110110011 )
b00000000100101000001001110110011 h
b00000000000000101000010000101110 ")
b00000000000000000000010000101100 "(
b00000000000000000000010000001011 "*
b00000000000000000000000000001111 "H
b00000000000000000000000000001111 "E
b0000000000000000000000000000000000000000000000000000000000000000 "I
b00000000000000000000000000000000 "H
b00000000000000000000000000000000 "E
#13000
0!
0#
0d
