in-order/top_level_no_macros/sim/presyn/toplevel.vcd
$date
	Mon May 22 20:45:54 2023
$end

$version
	Synopsys VCS version T-2022.06_Full64
$end

$timescale
	10ps
$end

$comment Csum: 1 db47f889a933b6cd $end


$scope module toplevel_tb $end
$var reg 1 ! clk $end
$var reg 1 " reset $end

$scope module dut $end
$var wire 1 # clk $end
$var wire 1 $ reset $end
$var wire 32 % dmem_rdata [31:0] $end
$var wire 1 & dmem_w_en $end
$var wire 32 ' dmem_wdata [31:0] $end
$var wire 6 ( dmem_addr [5:0] $end
$var wire 32 ) instruction_if [31:0] $end
$var wire 32 * pc_if [31:0] $end

$scope module cpu0 $end
$var wire 1 # clk $end
$var wire 1 $ reset $end
$var wire 32 % dmem_rdata [31:0] $end
$var wire 1 & dmem_w_en $end
$var wire 32 ' dmem_wdata [31:0] $end
$var wire 6 ( dmem_addr [5:0] $end
$var wire 32 ) instruction_if [31:0] $end
$var wire 32 * pc_if [31:0] $end
$var wire 1 + hazard_flag $end
$var wire 32 , pc_id [31:0] $end
$var wire 32 - instruction_id [31:0] $end
$var wire 5 . rs1_addr [4:0] $end
$var wire 5 / rs2_addr [4:0] $end
$var wire 32 0 rs1_data [31:0] $end
$var wire 32 1 rs2_data [31:0] $end
$var wire 32 2 pc_ex [31:0] $end
$var wire 5 3 rd_addr_ex [4:0] $end
$var wire 32 4 rs1_data_ex [31:0] $end
$var wire 32 5 rs2_data_ex [31:0] $end
$var wire 1 6 rf_w_en_ex $end
$var wire 2 7 opsel1 [1:0] $end
$var wire 2 8 opsel2 [1:0] $end
$var wire 2 9 wbsel_ex [1:0] $end
$var wire 4 : alu_func [3:0] $end
$var wire 1 ; mem_w_en_ex $end
$var wire 32 < pc_mem [31:0] $end
$var wire 5 = rd_addr_mem [4:0] $end
$var wire 1 > rf_w_en_mem $end
$var wire 32 ? alu_out_mem [31:0] $end
$var wire 32 @ imm_mem [31:0] $end
$var wire 2 A wbsel_mem [1:0] $end
$var wire 1 B mem_w_en_mem $end
$var wire 32 C rs2_data_mem [31:0] $end
$var wire 32 D pc_wb [31:0] $end
$var wire 5 E rd_addr_wb [4:0] $end
$var wire 1 F rf_w_en_wb $end
$var wire 32 G alu_out_wb [31:0] $end
$var wire 32 H rf_wdata_wb [31:0] $end
$var wire 32 I load_data_wb [31:0] $end
$var wire 32 J imm_wb [31:0] $end
$var wire 2 K wbsel_wb [1:0] $end
$var wire 2 L pcsel [1:0] $end
$var wire 32 M br_tar [31:0] $end

$scope module hazard_detect_inst $end
$var wire 32 ) inst_if [31:0] $end
$var wire 32 - inst_id [31:0] $end
$var wire 1 + hazard_o $end
$var reg 1 N hazard_RAW $end
$upscope $end


$scope module fetch0 $end
$var reg 1 O clk $end
$var reg 1 P reset $end
$var reg 2 Q pcsel [1:0] $end
$var reg 32 R br_dest [31:0] $end
$var reg 32 S instr_if [31:0] $end
$var reg 32 T pc_if [31:0] $end
$var reg 32 U pc_o [31:0] $end
$var reg 32 V instr_o [31:0] $end
$var reg 1 W hazard_flag_i $end
$var reg 32 X pc [31:0] $end
$upscope $end


$scope module decode0 $end
$var wire 1 # clk $end
$var wire 1 $ reset $end
$var wire 32 , pc_i [31:0] $end
$var wire 32 - inst [31:0] $end
$var wire 32 0 rs1_value_i [31:0] $end
$var wire 32 1 rs2_value_i [31:0] $end
$var reg 32 Y pc_o [31:0] $end
$var reg 4 Z alu_func [3:0] $end
$var reg 2 [ opsel1 [1:0] $end
$var reg 2 \ opsel2 [1:0] $end
$var reg 2 ] wbsel [1:0] $end
$var reg 5 ^ rs1_addr [4:0] $end
$var reg 5 _ rs2_addr [4:0] $end
$var reg 5 ` rd_addr [4:0] $end
$var reg 32 a rs1_value_o [31:0] $end
$var reg 32 b rs2_value_o [31:0] $end
$var reg 1 c rf_w_en $end
$var reg 1 d mem_w_en $end
$var reg 32 e imm [31:0] $end
$var reg 2 f pcsel [1:0] $end
$var reg 32 g branch_tar [31:0] $end
$var wire 5 h rs1 [4:0] $end
$var wire 5 i rs2 [4:0] $end
$var wire 5 j rd [4:0] $end
$var wire 7 k opcode [6:0] $end
$var wire 3 l funct3 [2:0] $end
$var wire 7 m funct7 [6:0] $end
$var wire 12 n imm_i [11:0] $end
$var wire 20 o imm_u [19:0] $end
$var wire 12 p imm_s [11:0] $end
$var wire 32 q br_addr [31:0] $end
$var wire 32 r jal_addr [31:0] $end
$var wire 32 s jalr_addr [31:0] $end
$var wire 1 t branch_cond_eq $end
$var wire 1 u branch_cond_ne $end
$var wire 1 v branch_cond_lt $end
$var wire 1 w branch_cond_ge $end
$var wire 1 x branch_cond_ltu $end
$var wire 1 y branch_cond_geu $end
$var reg 4 z alu_func_id [3:0] $end
$var reg 2 { opsel1_id [1:0] $end
$var reg 2 | opsel2_id [1:0] $end
$var reg 2 } wbsel_id [1:0] $end
$var reg 5 ~ rd_addr_id [4:0] $end
$var reg 1 "! rf_w_en_id $end
$var reg 1 "" mem_w_en_id $end
$var reg 32 "# imm_id [31:0] $end
$upscope $end


$scope module regfile0 $end
$var wire 1 # clk $end
$var wire 1 $ reset $end
$var wire 1 F w_en $end
$var wire 5 . ra_addr [4:0] $end
$var wire 5 / rb_addr [4:0] $end
$var wire 5 E rd_addr [4:0] $end
$var wire 32 H w_data [31:0] $end
$var wire 32 0 ra_value [31:0] $end
$var wire 32 1 rb_value [31:0] $end
$var integer 32 "$ i $end
$upscope $end


$scope module exec0 $end
$var wire 1 # clk $end
$var wire 1 $ reset $end
$var wire 2 7 opsel1 [1:0] $end
$var wire 2 8 opsel2 [1:0] $end
$var wire 4 : alu_func [3:0] $end
$var wire 32 4 rs1_data_i [31:0] $end
$var wire 32 5 rs2_data_i [31:0] $end
$var wire 32 @ imm [31:0] $end
$var wire 32 2 pc_i [31:0] $end
$var wire 5 3 rd_addr_i [4:0] $end
$var wire 1 6 rf_w_en_i $end
$var wire 2 9 wbsel_i [1:0] $end
$var wire 1 ; mem_w_en_i $end
$var reg 32 "% pc_o [31:0] $end
$var reg 32 "& alu_out [31:0] $end
$var reg 5 "' rd_addr_o [4:0] $end
$var reg 1 "( rf_w_en_o $end
$var reg 2 ") wbsel_o [1:0] $end
$var reg 1 "* mem_w_en_o $end
$var reg 32 "+ rs2_data_o [31:0] $end
$var reg 32 ", alu_op1 [31:0] $end
$var reg 32 "- alu_op2 [31:0] $end
$var wire 32 ". alu_out_temp [31:0] $end

$scope module alu0 $end
$var wire 32 "/ alu_op1 [31:0] $end
$var wire 32 "0 alu_op2 [31:0] $end
$var wire 4 : alu_func [3:0] $end
$var reg 32 "1 alu_out [31:0] $end
$upscope $end

$upscope $end


$scope module memaccess0 $end
$var wire 1 # clk $end
$var wire 1 $ reset $end
$var wire 32 < pc_i [31:0] $end
$var wire 32 ? alu_result_i [31:0] $end
$var wire 32 % mem_r_i [31:0] $end
$var wire 5 = rd_addr_i [4:0] $end
$var wire 1 > rf_w_en_i $end
$var wire 32 @ imm_i [31:0] $end
$var wire 2 A wbsel_i [1:0] $end
$var reg 32 "2 pc_o [31:0] $end
$var reg 32 "3 alu_result_o [31:0] $end
$var reg 32 "4 load_data [31:0] $end
$var reg 5 "5 rd_addr_o [4:0] $end
$var reg 1 "6 rf_w_en_o $end
$var reg 32 "7 imm_o [31:0] $end
$var reg 2 "8 wbsel_o [1:0] $end
$upscope $end


$scope module wb0 $end
$var wire 2 K wbsel [1:0] $end
$var wire 32 G alu_result [31:0] $end
$var wire 32 I dmem_result [31:0] $end
$var wire 32 J imm [31:0] $end
$var wire 32 D pc_i [31:0] $end
$var reg 32 "9 rf_wdata [31:0] $end
$upscope $end

$upscope $end


$scope module dcache0 $end
$var wire 1 # clk $end
$var wire 1 $ reset $end
$var wire 1 & w_en $end
$var wire 32 ' wdata [31:0] $end
$var wire 6 ( raddr [5:0] $end
$var wire 6 ( waddr [5:0] $end
$var wire 32 % rdata [31:0] $end
$var integer 32 ": i $end
$upscope $end


$scope module instruction_memory $end
$var reg 32 "; addr [31:0] $end
$var reg 32 "< data [31:0] $end
$var integer 32 "= i $end
$upscope $end

$upscope $end

$upscope $end

$enddefinitions $end

#0
$dumpvars
xt
xw
xy
xv
xx
xu
0!
x&
1$
1P
xN
x+
xW
bxxxxxxxxxxxxxxxxxxxxxxxxxxxxxxxx )
xd
x;
0""
xB
x"*
x"6
1"
xc
x6
0"!
x>
x"(
xF
bxxxxxxxxxxxxxxxxxxxxxxxxxxxxxxxx "/
bxxxxxxxxxxxxxxxxxxxxxxxxxxxxxxxx "0
bxxxxxxxxxxxxxxxxxxxxxxxxxxxxxxxx "1
bxxxx :
b0000 z
bxxxxxxxxxxxxxxxxxxxxxxxxxxxxxxxx ",
bxxxxxxxxxxxxxxxxxxxxxxxxxxxxxxxx "-
bxxxxxxxxxxxxxxxxxxxxxxxxxxxxxxxx "&
bxxxxxxxxxxxxxxxxxxxxxxxxxxxxxxxx ?
bxxxxxxxxxxxxxxxxxxxxxxxxxxxxxxxx ".
bxxxxxxxxxxxxxxxxxxxxxxxxxxxxxxxx G
bxxxxxxxxxxxxxxxxxxxxxxxxxxxxxxxx "3
bxxxxxxxxxxxxxxxxxxxxxxxxxxxxxxxx q
b00000000000000000000000000000000 R
b00000000000000000000000000000000 M
b00000000000000000000000000000000 g
bxxxxxxxxxxxxxxxxxxxxxxxxxxxxxxxx ":
bxxxx Z
bxx [
bxx \
bxxxxxxxxxxxxxxxxxxxxxxxxxxxxxxxx Y
b00 f
b00000 ^
b00000 _
bxxxxxx (
bxxxxxxxxxxxxxxxxxxxxxxxxxxxxxxxx %
bxxxxxxxxxxxxxxxxxxxxxxxxxxxxxxxx '
bxxxxxxxxxxxxxxxxxxxxxxxxxxxxxxxx "%
bxxxxxxxxxxxxxxxxxxxxxxxxxxxxxxxx T
b00 Q
bxxxxxxxxxxxxxxxxxxxxxxxxxxxxxxxx "$
bxxxxxxxxxxxxxxxxxxxxxxxxxxxxxxxx e
bxxxxxxxxxxxx n
b00000000000000000000000000000000 "#
bxxxxxxxxxxxxxxxxxxxxxxxxxxxxxxxx @
bxxxxxxxxxxxxxxxxxxxxxxxxxxxxxxxx "7
bxxxxxxxxxxxx p
bxxxxxxxxxxxxxxxxxxxx o
bxxxxxxxxxxxxxxxxxxxxxxxxxxxxxxxx J
bxxxxxxxxxxxxxxxxxxxxxxxxxxxxxxxx S
bxxxxxxxxxxxxxxxxxxxxxxxxxxxxxxxx V
bxxxxxxxxxxxxxxxxxxxxxxxxxxxxxxxx -
bxxxxxxxxxxxxxxxxxxxxxxxxxxxxxxxx r
bxxxxxxxxxxxxxxxxxxxxxxxxxxxxxxxx s
bxxxxxxxxxxxxxxxxxxxxxxxxxxxxxxxx "4
bxxxxxxxxxxxxxxxxxxxxxxxxxxxxxxxx I
bxxxxxxxxxxxxxxxxxxxxxxxxxxxxxxxx "2
bxxxxx "5
bxx "8
bxx 7
b00 {
bxx 8
b00 |
bxxxxxxxxxxxxxxxxxxxxxxxxxxxxxxxx X
bxxxxxxxxxxxxxxxxxxxxxxxxxxxxxxxx 2
bxxxxxxxxxxxxxxxxxxxxxxxxxxxxxxxx ,
bxxxxxxxxxxxxxxxxxxxxxxxxxxxxxxxx *
bxxxxxxxxxxxxxxxxxxxxxxxxxxxxxxxx <
bxxxxxxxxxxxxxxxxxxxxxxxxxxxxxxxx U
bxxxxxxxxxxxxxxxxxxxxxxxxxxxxxxxx D
b00 L
bxxxxx `
bxxxxx 3
b00000 ~
bxxxxx =
bxxxxx "'
bxxxxx E
bxxxxxxxxxxxxxxxxxxxxxxxxxxxxxxxx "9
bxxxxxxxxxxxxxxxxxxxxxxxxxxxxxxxx H
b00000 .
bxxxxxxxxxxxxxxxxxxxxxxxxxxxxxxxx 0
bxxxxxxxxxxxxxxxxxxxxxxxxxxxxxxxx 4
bxxxxxxxxxxxxxxxxxxxxxxxxxxxxxxxx a
b00000 /
bxxxxxxxxxxxxxxxxxxxxxxxxxxxxxxxx 1
bxxxxxxxxxxxxxxxxxxxxxxxxxxxxxxxx 5
bxxxxxxxxxxxxxxxxxxxxxxxxxxxxxxxx C
bxxxxxxxxxxxxxxxxxxxxxxxxxxxxxxxx "+
bxxxxxxxxxxxxxxxxxxxxxxxxxxxxxxxx b
bxxxxx h
bxxxxx i
bxxxxx j
bxxxxxxx k
bxxx l
bxxxxxxx m
bxx ]
bxx 9
b00 }
bxx A
bxx ")
bxx K
bxxxxxxxxxxxxxxxxxxxxxxxxxxxxxxxx ";
bxxxxxxxxxxxxxxxxxxxxxxxxxxxxxxxx "<
b00000000000000000000000011000000 "=
0#
0O
$end
#500
1!
1#
1O
b00000000000000000000000000100000 "$
b00000000000000000000000000100000 ":
b00000000000000000000000000000000 Y
b00000000000000000000000000000000 2
b0000 Z
b0000 :
b00 [
b00 7
b00 \
b00 8
b00 ]
b00 9
b00000 `
b00000 3
0c
06
0d
0;
b00000000000000000000000000000000 e
b00000000000000000000000000000000 @
b00000000000000000000000000000000 a
b00000000000000000000000000000000 4
b00000000000000000000000000000000 b
b00000000000000000000000000000000 5
b00000000000000000000000000000000 "%
b00000000000000000000000000000000 <
b00000000000000000000000000000000 "&
b00000000000000000000000000000000 ?
b000000 (
b00000 "'
b00000 =
0"(
0>
b00 ")
b00 A
0"*
0B
0&
b00000000000000000000000000000000 "+
b00000000000000000000000000000000 C
b00000000000000000000000000000000 '
b00000000000000000000000000000000 "2
b00000000000000000000000000000000 D
b00000000000000000000000000000000 "3
b00000000000000000000000000000000 G
b00000 "5
b00000 E
0"6
0F
b00000000000000000000000000000000 "4
b00000000000000000000000000000000 I
b00000000000000000000000000000000 "7
b00000000000000000000000000000000 J
b00 "8
b00 K
b00000000000000000000000000000000 1
b00000000000000000000000000000000 0
b00000000000000001010110011100001 %
b00000000000000000000000000000000 X
b00000000000000000000000000000000 T
b00000000000000000000000000000000 *
b00000000000000000000000000000000 ";
b00000000001000010000000010010011 "<
b00000000000000000000000000000000 U
b00000000000000000000000000000000 ,
b00000000000000000000000000000000 V
b00000000000000000000000000000000 -
b00000 h
b00000 i
b00000 j
b0000000 k
b000 l
b0000000 m
b0000000xxxxx p
b000000000000 p
b00000000000000000000 o
b000000000000 n
b00000000000000000000000000000000 ",
b00000000000000000000000000000000 "/
b00000000000000000000000000000000 "1
b00000000000000000000000000000000 ".
b00000000000000000000000000000000 "-
b00000000000000000000000000000000 "0
b00000000000000000000000000000000 "9
b00000000000000000000000000000000 H
1w
0v
1y
0x
0u
1t
b00000000001000010000000010010011 )
b00000000001000010000000010010011 S
0N
0+
0W
b00000000000000000000000000000000 r
b00000000000000000000000000000000 q
b00000000000000000000000000000000 s
#1000
0!
0#
0O
#1500
1!
1#
1O
#2000
0"
0$
0P
0!
0#
0O
#2500
1!
1#
1O
b00000000000000001010110011100001 "4
b00000000000000001010110011100001 I
b00000000000000000000000000000100 X
b00000000000000000000000000000100 T
b00000000000000000000000000000100 *
b00000000000000000000000000000100 ";
b00000000001100100001000110010011 "<
b00000000001000010000000010010011 V
b00000000001000010000000010010011 -
b00010 h
b00010 i
b00001 j
b0010011 k
b000000000001 p
b00000000001000010000 o
b000000000010 n
b00000000001100100001000110010011 )
b00000000001100100001000110010011 S
b00000000000000000000000000000010 "#
1"!
b00001 ~
b00010 ^
b00010 .
b10 |
b01 {
b0001 z
b00000000000000000000000000000100 s
b00000000000000010000000000000010 r
b00000000000000000000100000000000 q
#3000
0!
0#
0O
#3500
1!
1#
1O
b0001 Z
b0001 :
b01 [
b01 7
b10 \
b10 8
b00001 `
b00001 3
1c
16
b00000000000000000000000000000010 e
b00000000000000000000000000000010 @
b00000000000000000000000000001000 X
b00000000000000000000000000001000 T
b00000000000000000000000000001000 *
b00000000000000000000000000001000 ";
b00000000011100110010001010010011 "<
b00000000000000000000000000000100 U
b00000000000000000000000000000100 ,
b00000000001100100001000110010011 V
b00000000001100100001000110010011 -
b00100 h
b00011 i
b00011 j
b001 l
b000000000011 p
b00000000001100100001 o
b000000000011 n
b00000000000000000000000000000010 "-
b00000000000000000000000000000010 "0
b00000000000000000000000000000011 "#
b00011 ~
b00100 ^
b00100 .
b1000 z
b00000000011100110010001010010011 )
b00000000011100110010001010010011 S
b00000000000000100001100000000110 r
b00000000000000000000100000000110 q
b00000000000000000000000000000111 s
b00000000000000000000000000000010 "1
b00000000000000000000000000000010 ".
#4000
0!
0#
0O
#4500
1!
1#
1O
b00000000000000000000000000000100 Y
b00000000000000000000000000000100 2
b1000 Z
b1000 :
b00011 `
b00011 3
b00000000000000000000000000000011 e
b00000000000000000000000000000011 @
b00000000000000000000000000000010 "&
b00000000000000000000000000000010 ?
b00001 "'
b00001 =
1"(
1>
b00000000000000000000000000000010 "7
b00000000000000000000000000000010 J
b00000000000000000000000000001100 X
b00000000000000000000000000001100 T
b00000000000000000000000000001100 *
b00000000000000000000000000001100 ";
b00000000100101000011001110010011 "<
b00000000000000000000000000001000 U
b00000000000000000000000000001000 ,
b00000000011100110010001010010011 V
b00000000011100110010001010010011 -
b00110 h
b00111 i
b00101 j
b010 l
b000000000101 p
b00000000011100110010 o
b000000000111 n
b00000000000000000000000000000000 "1
b00000000000000000000000000000000 ".
b00000000000000000000000000000111 "#
b00101 ~
b00110 ^
b00110 .
b0110 z
b00000000000000000000000000000011 "-
b00000000000000000000000000000011 "0
b00000000100101000011001110010011 )
b00000000100101000011001110010011 S
b00000000000000110010100000001110 r
b00000000000000000000100000001100 q
b00000000000000000000000000001101 s
#5000
0!
0#
0O
#5500
1!
1#
1O
b00000000000000000000000000001000 Y
b00000000000000000000000000001000 2
b0110 Z
b0110 :
b00101 `
b00101 3
b00000000000000000000000000000111 e
b00000000000000000000000000000111 @
b00000000000000000000000000000100 "%
b00000000000000000000000000000100 <
b00000000000000000000000000000000 "&
b00000000000000000000000000000000 ?
b00011 "'
b00011 =
b00000000000000000000000000000010 "3
b00000000000000000000000000000010 G
b00001 "5
b00001 E
1"6
1F
b00000000000000000000000000000011 "7
b00000000000000000000000000000011 J
b00000000000000000000000000010000 X
b00000000000000000000000000010000 T
b00000000000000000000000000010000 *
b00000000000000000000000000010000 ";
b00000000110001010100010010010011 "<
b00000000000000000000000000001100 U
b00000000000000000000000000001100 ,
b00000000100101000011001110010011 V
b00000000100101000011001110010011 -
b01000 h
b01001 i
b00111 j
b011 l
b000000000111 p
b00000000100101000011 o
b000000001001 n
b00000000000000000000000000000001 "1
b00000000000000000000000000000001 ".
b00000000000000000000000000001001 "#
b00111 ~
b01000 ^
b01000 .
b0111 z
b00000000000000000000000000000111 "-
b00000000000000000000000000000111 "0
b00000000000000000000000000000010 "9
b00000000000000000000000000000010 H
b00000000110001010100010010010011 )
b00000000110001010100010010010011 S
b00000000000001000011100000010100 r
b00000000000000000000100000010010 q
b00000000000000000000000000010001 s
#6000
0!
0#
0O
#6500
1!
1#
1O
b00000000000000000000000000001100 Y
b00000000000000000000000000001100 2
b0111 Z
b0111 :
b00111 `
b00111 3
b00000000000000000000000000001001 e
b00000000000000000000000000001001 @
b00000000000000000000000000001000 "%
b00000000000000000000000000001000 <
b00000000000000000000000000000001 "&
b00000000000000000000000000000001 ?
b00101 "'
b00101 =
b00000000000000000000000000000100 "2
b00000000000000000000000000000100 D
b00000000000000000000000000000000 "3
b00000000000000000000000000000000 G
b00011 "5
b00011 E
b00000000000000000000000000000111 "7
b00000000000000000000000000000111 J
b00000000000000000000000000010100 X
b00000000000000000000000000010100 T
b00000000000000000000000000010100 *
b00000000000000000000000000010100 ";
b01000000010001100101010110010011 "<
b00000000000000000000000000010000 U
b00000000000000000000000000010000 ,
b00000000110001010100010010010011 V
b00000000110001010100010010010011 -
b01010 h
b01100 i
b01001 j
b100 l
b000000001001 p
b00000000110001010100 o
b000000001100 n
b00000000000000000000000000001100 "#
b01001 ~
b01010 ^
b01010 .
b0101 z
b00000000000000000000000000001001 "-
b00000000000000000000000000001001 "0
b00000000000000000000000000000000 "9
b00000000000000000000000000000000 H
b01000000010001100101010110010011 )
b01000000010001100101010110010011 S
b00000000000001010100000000011100 r
b00000000000000000000100000011000 q
b00000000000000000000000000010110 s
#7000
0!
0#
0O
#7500
1!
1#
1O
b00000000000000000000000000010000 Y
b00000000000000000000000000010000 2
b0101 Z
b0101 :
b01001 `
b01001 3
b00000000000000000000000000001100 e
b00000000000000000000000000001100 @
b00000000000000000000000000001100 "%
b00000000000000000000000000001100 <
b00111 "'
b00111 =
b00000000000000000000000000001000 "2
b00000000000000000000000000001000 D
b00000000000000000000000000000001 "3
b00000000000000000000000000000001 G
b00101 "5
b00101 E
b00000000000000000000000000001001 "7
b00000000000000000000000000001001 J
b00000000000000000000000000011000 X
b00000000000000000000000000011000 T
b00000000000000000000000000011000 *
b00000000000000000000000000011000 ";
b00000000010101110101011010010011 "<
b00000000000000000000000000010100 U
b00000000000000000000000000010100 ,
b01000000010001100101010110010011 V
b01000000010001100101010110010011 -
b01100 h
b00100 i
b01011 j
b101 l
b0100000 m
b010000001001 p
b010000001011 p
b01000000010001100101 o
b010000000100 n
b00000000000000000000000000001001 "1
b00000000000000000000000000001001 ".
b01011 ~
b01100 ^
b01100 .
b1001 z
b00000000000000000000000000001100 "-
b00000000000000000000000000001100 "0
b00000000000000000000000000000001 "9
b00000000000000000000000000000001 H
b00000000010101110101011010010011 )
b00000000010101110101011010010011 S
b00000000000001100101010000011000 r
b00000000000000000000110000011110 q
b00000000000000000000010000010000 s
b00000000000000000000000000001100 "1
b00000000000000000000000000001100 ".
#8000
0!
0#
0O
#8500
1!
1#
1O
b00000000000000000000000000010100 Y
b00000000000000000000000000010100 2
b1001 Z
b1001 :
b01011 `
b01011 3
b00000000000000000000000000010000 "%
b00000000000000000000000000010000 <
b00000000000000000000000000001100 "&
b00000000000000000000000000001100 ?
b000011 (
b00000000000000000000000000000000 %
b01001 "'
b01001 =
b00000000000000000000000000001100 "2
b00000000000000000000000000001100 D
b00111 "5
b00111 E
b00000000000000000000000000001100 "7
b00000000000000000000000000001100 J
b00000000000000000000000000011100 X
b00000000000000000000000000011100 T
b00000000000000000000000000011100 *
b00000000000000000000000000011100 ";
b00000000101010000110011110010011 "<
b00000000000000000000000000011000 U
b00000000000000000000000000011000 ,
b00000000010101110101011010010011 V
b00000000010101110101011010010011 -
b01110 h
b00101 i
b01101 j
b0000000 m
b000000001011 p
b000000001101 p
b00000000010101110101 o
b000000000101 n
b00000000000000000000000000000000 "1
b00000000000000000000000000000000 ".
b00000000101010000110011110010011 )
b00000000101010000110011110010011 S
b00000000000001110101100000011100 r
b00000000000000000000100000100100 q
b01101 ~
b01110 ^
b01110 .
b1010 z
b00000000000000000000000000010011 s
#9000
0!
0#
0O
#9500
1!
1#
1O
b00000000000000000000000000011000 Y
b00000000000000000000000000011000 2
b1010 Z
b1010 :
b01101 `
b01101 3
b00000000000000000000000000010100 "%
b00000000000000000000000000010100 <
b00000000000000000000000000000000 "&
b00000000000000000000000000000000 ?
b000000 (
b00000000000000001010110011100001 %
b01011 "'
b01011 =
b00000000000000000000000000010000 "2
b00000000000000000000000000010000 D
b00000000000000000000000000001100 "3
b00000000000000000000000000001100 G
b01001 "5
b01001 E
b00000000000000000000000000000000 "4
b00000000000000000000000000000000 I
b00000000000000000000000000100000 X
b00000000000000000000000000100000 T
b00000000000000000000000000100000 *
b00000000000000000000000000100000 ";
b00000000111110010111100010010011 "<
b00000000000000000000000000011100 U
b00000000000000000000000000011100 ,
b00000000101010000110011110010011 V
b00000000101010000110011110010011 -
b10000 h
b01010 i
b01111 j
b110 l
b000000001111 p
b00000000101010000110 o
b000000001010 n
b00000000000000000000000000001100 "9
b00000000000000000000000000001100 H
b00000000111110010111100010010011 )
b00000000111110010111100010010011 S
b00000000000010000110000000100110 r
b00000000000000000000100000101010 q
b00000000000000000000000000001010 "#
b01111 ~
b10000 ^
b10000 .
b0100 z
b00000000000000000000000000011010 s
#10000
0!
0#
0O
#10500
1!
1#
1O
b00000000000000000000000000011100 Y
b00000000000000000000000000011100 2
b0100 Z
b0100 :
b01111 `
b01111 3
b00000000000000000000000000001010 e
b00000000000000000000000000001010 @
b00000000000000000000000000011000 "%
b00000000000000000000000000011000 <
b01101 "'
b01101 =
b00000000000000000000000000010100 "2
b00000000000000000000000000010100 D
b00000000000000000000000000000000 "3
b00000000000000000000000000000000 G
b01011 "5
b01011 E
b00000000000000001010110011100001 "4
b00000000000000001010110011100001 I
b00000000000000000000000000100100 X
b00000000000000000000000000100100 T
b00000000000000000000000000100100 *
b00000000000000000000000000100100 ";
b00000000001100010000000010110011 "<
b00000000000000000000000000100000 U
b00000000000000000000000000100000 ,
b00000000111110010111100010010011 V
b00000000111110010111100010010011 -
b10010 h
b01111 i
b10001 j
b111 l
b000000010001 p
b00000000111110010111 o
b000000001111 n
b00000000000000000000000000001100 "1
b00000000000000000000000000001100 ".
b00000000000000000000000000001111 "#
b10001 ~
b10010 ^
b10010 .
b0011 z
b00000000000000000000000000001010 "-
b00000000000000000000000000001010 "0
b00000000000000000000000000000000 "9
b00000000000000000000000000000000 H
b00000000001100010000000010110011 )
b00000000001100010000000010110011 S
b00000000000010010111100000101110 r
b00000000000000000000100000110000 q
b00000000000000000000000000100001 s
b00000000000000000000000000001010 "1
b00000000000000000000000000001010 ".
#11000
0!
0#
0O
#11500
1!
1#
1O
b00000000000000000000000000100000 Y
b00000000000000000000000000100000 2
b0011 Z
b0011 :
b10001 `
b10001 3
b00000000000000000000000000001111 e
b00000000000000000000000000001111 @
b00000000000000000000000000011100 "%
b00000000000000000000000000011100 <
b00000000000000000000000000001010 "&
b00000000000000000000000000001010 ?
b000010 (
b00000000000000000000000000000000 %
b01111 "'
b01111 =
b00000000000000000000000000011000 "2
b00000000000000000000000000011000 D
b01101 "5
b01101 E
b00000000000000000000000000001010 "7
b00000000000000000000000000001010 J
b00000000000000000000000000101000 X
b00000000000000000000000000101000 T
b00000000000000000000000000101000 *
b00000000000000000000000000101000 ";
b01000000011000101000001000110011 "<
b00000000000000000000000000100100 U
b00000000000000000000000000100100 ,
b00000000001100010000000010110011 V
b00000000001100010000000010110011 -
b00010 h
b00011 i
b00001 j
b0110011 k
b000 l
b000000000001 p
b00000000001100010000 o
b000000000011 n
b00000000000000000000000000000000 "1
b00000000000000000000000000000000 ".
b00000000000000000000000000000000 "#
b00001 ~
b00011 _
b00011 /
b00010 ^
b00010 .
b01 |
b0001 z
b00000000000000000000000000001111 "-
b00000000000000000000000000001111 "0
b01000000011000101000001000110011 )
b01000000011000101000001000110011 S
b00000000000000010000100000100110 r
b00000000000000000000100000100100 q
b00000000000000000000000000000101 s
#12000
0!
0#
0O
#12500
1!
1#
1O
b00000000000000000000000000100100 Y
b00000000000000000000000000100100 2
b0001 Z
b0001 :
b01 \
b01 8
b00001 `
b00001 3
b00000000000000000000000000000000 e
b00000000000000000000000000000000 @
b00000000000000000000000000100000 "%
b00000000000000000000000000100000 <
b00000000000000000000000000000000 "&
b00000000000000000000000000000000 ?
b000000 (
b00000000000000001010110011100001 %
b10001 "'
b10001 =
b00000000000000000000000000011100 "2
b00000000000000000000000000011100 D
b00000000000000000000000000001010 "3
b00000000000000000000000000001010 G
b01111 "5
b01111 E
b00000000000000000000000000000000 "4
b00000000000000000000000000000000 I
b00000000000000000000000000001111 "7
b00000000000000000000000000001111 J
b00000000000000000000000000101100 X
b00000000000000000000000000101100 T
b00000000000000000000000000101100 *
b00000000000000000000000000101100 ";
b00000000100101000001001110110011 "<
b00000000000000000000000000101000 U
b00000000000000000000000000101000 ,
b01000000011000101000001000110011 V
b01000000011000101000001000110011 -
b00101 h
b00110 i
b00100 j
b0100000 m
b010000000001 p
b010000000100 p
b01000000011000101000 o
b010000000110 n
b00000000000000000000000000001111 "1
b00000000000000000000000000001111 ".
b00000000000000000000000000000000 "-
b00000000000000000000000000000000 "0
b00100 ~
b00110 _
b00110 /
b00101 ^
b00101 .
b00000000000000000000000000000001 0
b0010 z
b00000000000000000000000000001010 "9
b00000000000000000000000000001010 H
b00000000100101000001001110110011 )
b00000000100101000001001110110011 S
b00000000000000101000010000101110 r
b00000000000000000000010000101100 q
b00000000000000000000010000001011 s
b00000000000000000000000000000000 "1
b00000000000000000000000000000000 ".
1u
0t
#13000
0!
0#
0O
#13500
1!
1#
1O
b00000000000000000000000000101000 Y
b00000000000000000000000000101000 2
b0010 Z
b0010 :
b00100 `
b00100 3
b00000000000000000000000000000001 a
b00000000000000000000000000000001 4
b00000000000000000000000000100100 "%
b00000000000000000000000000100100 <
b00001 "'
b00001 =
b00000000000000000000000000100000 "2
b00000000000000000000000000100000 D
b00000000000000000000000000000000 "3
b00000000000000000000000000000000 G
b10001 "5
b10001 E
b00000000000000001010110011100001 "4
b00000000000000001010110011100001 I
b00000000000000000000000000000000 "7
b00000000000000000000000000000000 J
b00000000000000000000000000110000 X
b00000000000000000000000000110000 T
b00000000000000000000000000110000 *
b00000000000000000000000000110000 ";
b00000000110001011010010100110011 "<
b00000000000000000000000000101100 U
b00000000000000000000000000101100 ,
b00000000100101000001001110110011 V
b00000000100101000001001110110011 -
b01000 h
b01001 i
b00111 j
b001 l
b0000000 m
b000000000100 p
b000000000111 p
b00000000100101000001 o
b000000001001 n
b00000000000000000000000000000001 ",
b00000000000000000000000000000001 "/
b00000000000000000000000000000001 "1
b00000000000000000000000000000001 ".
b00000000000000000000000000000000 "9
b00000000000000000000000000000000 H
b00000000110001011010010100110011 )
b00000000110001011010010100110011 S
b00000000000001000001100000110100 r
b00000000000000000000100000110010 q
b00111 ~
b01001 _
b01001 /
b00000000000000000000000000001100 1
b01000 ^
b01000 .
b00000000000000000000000000000000 0
b1000 z
b00000000000000000000000000010001 s
0w
1v
0y
1x
#14000
0!
0#
0O
