in-order/regfile/sim/postsyn/uut.vcd
$date
	Sun May 14 18:42:36 2023
$end

$version
	Synopsys VCS version T-2022.06_Full64
$end

$timescale
	10ps
$end

$comment Csum: 1 bbd28e27138b6b82 $end


$scope module regfile_tb $end
$var reg 1 ! rst $end
$var reg 1 " w_en $end
$var reg 5 # ra_addr [4:0] $end
$var reg 5 $ rb_addr [4:0] $end
$var reg 5 % rd_addr [4:0] $end
$var reg 32 & w_data [31:0] $end
$var wire 32 ' ra_value [31:0] $end
$var wire 32 ( rb_value [31:0] $end
$upscope $end

$enddefinitions $end

#0
$dumpvars
1!
0"
b00000 #
b00000 $
b00000 %
b00000000000000000000000000000000 &
bxxxxxxxxxxxxxxxxxxxxxxxxxxxxxxxx (
bxxxxxxxxxxxxxxxxxxxxxxxxxxxxxxxx '
$end
#60
b00000000000000000000000000000000 '
b00000000000000000000000000000000 (
#2000
0!
#4000
1"
b00000000000000000000000110010000 &
#6000
b00001 %
b00000000000000000000000000000001 &
#8000
b00001 #
b00001 $
b00010 %
b00000000000000000000000000000010 &
#8050
b00000000000000000000000000000001 (
#8060
b00000000000000000000000000000001 '
#10000
b00010 $
b11111 %
b00000000000000000000000000011111 &
#10050
b00000000000000000000000000000000 (
#10060
b00000000000000000000000000000010 (
